%!PS-Adobe-3.0
%%Creator: COSY INFINITY Graphics
%%Title: pic002.ps
%%BoundingBox: 50 21 550 771
%%Orientation: Landscape
%%Pages: 1
%%Page: 1 1
/sn {stroke newpath} bind def
/w {setlinewidth} def
/m {moveto} bind def
/l {lineto} bind def
/ms {newpath moveto gsave 1 1.5 scale show grestore} bind def
/t {moveto lineto lineto closepath gsave fill grestore stroke newpath} bind def
/tw {moveto lineto lineto closepath stroke newpath} bind def
/c {setrgbcolor} bind def % - color picture
%/c {add add 3 div setgray} bind def % - grayscale picture except for shfill GRPOLY objects
/Helvetica findfont 0.02 scalefont setfont
500 750 scale 1.100 0.0280 translate 90 rotate
1 setlinejoin 1 setlinecap
0.0015 setlinewidth 0 0 1 1 rectclip
.000000 .000000 .000000 c
.268518519 .114197531 m
.268518519 .114197531 l
.268518519 .885802469 l
.268518519 .885802469 l
.268518519 .114197531 l
sn
.268518519 .885802469 m
.384259259 .885802469 l
sn
.268518519 .114197531 m
.384259259 .114197531 l
sn
.268518519 .114197531 m
.384259259 .114197531 l
sn
.268518519 .885802469 m
.384259259 .885802469 l
sn
.384259259 .885802469 m
.384259259 .114197531 l
.384259259 .114197531 l
.384259259 .885802469 l
.384259259 .885802469 l
sn
.442129630 .114197531 m
.442129630 .114197531 l
.442129630 .885802469 l
.442129630 .885802469 l
.442129630 .114197531 l
sn
.442129630 .885802469 m
.557870370 .885802469 l
sn
.442129630 .114197531 m
.557870370 .114197531 l
sn
.442129630 .114197531 m
.557870370 .114197531 l
sn
.442129630 .885802469 m
.557870370 .885802469 l
sn
.557870370 .885802469 m
.557870370 .114197531 l
.557870370 .114197531 l
.557870370 .885802469 l
.557870370 .885802469 l
sn
.615740741 .114197531 m
.615740741 .114197531 l
.615740741 .885802469 l
.615740741 .885802469 l
.615740741 .114197531 l
sn
.615740741 .885802469 m
.731481481 .885802469 l
sn
.615740741 .114197531 m
.731481481 .114197531 l
sn
.615740741 .114197531 m
.731481481 .114197531 l
sn
.615740741 .885802469 m
.731481481 .885802469 l
sn
.731481481 .885802469 m
.731481481 .114197531 l
.731481481 .114197531 l
.731481481 .885802469 l
.731481481 .885802469 l
sn
.000000 .000000 .000000 c
.037037037 .500000000 m
.268518519 .500000000 l
.384259259 .500000000 l
.442129630 .500000000 l
.557870370 .500000000 l
.615740741 .500000000 l
.731481481 .500000000 l
.962962963 .500000000 l
sn
.000000 .000000 .000000 c
.037037037 .500000000 m
.268518519 .500000000 l
.384259259 .500000000 l
.442129630 .500000000 l
.557870370 .500000000 l
.615740741 .500000000 l
.731481481 .500000000 l
.962962963 .500000000 l
sn
.000000 .200000 1.000000 c
.037037037 .500000000 m
.268518519 .500000000 l
sn
% POLY# 1     end point (  0.30000000E+00, -0.48836715E-03,  0.00000000E+00 )
% curve, solid color, mesh 3 (automatic)
% eps_xyz, eps_color: 0.5%,  0.63662-310
sn
.268518519 .500000000 m
.306607304 .500000000 l
.346153506 .500000000 l
.384259259 .500000000 l
sn
.384259259 .500000000 m
.442129630 .500000000 l
sn
% POLY# 2     end point (  0.45000000E+00,  0.48208322E-03,  0.00000000E+00 )
% curve, solid color, mesh 3 (automatic)
% eps_xyz, eps_color: 0.5%,  0.63662-310
sn
.442129630 .500000000 m
.480237794 .500000000 l
.519786575 .500000000 l
.557870370 .500000000 l
sn
.557870370 .500000000 m
.615740741 .500000000 l
sn
% POLY# 3     end point (  0.60000000E+00,  0.15470651E-02,  0.00000000E+00 )
% curve, solid color, mesh 3 (automatic)
% eps_xyz, eps_color: 0.5%,  0.63662-310
sn
.615740741 .500000000 m
.653853825 .500000000 l
.693385660 .500000000 l
.731481481 .500000000 l
sn
.731481481 .500000000 m
.962962963 .500000000 l
sn
.000000 .200000 1.000000 c
.037037037 .500000000 m
.268518519 .500000000 l
sn
% POLY# 4     end point (  0.30000000E+00,  0.48836715E-03,  0.00000000E+00 )
% curve, solid color, mesh 3 (automatic)
% eps_xyz, eps_color: 0.5%,  0.63662-310
sn
.268518519 .500000000 m
.306607304 .500000000 l
.346153506 .500000000 l
.384259259 .500000000 l
sn
.384259259 .500000000 m
.442129630 .500000000 l
sn
% POLY# 5     end point (  0.45000000E+00, -0.48208322E-03,  0.00000000E+00 )
% curve, solid color, mesh 3 (automatic)
% eps_xyz, eps_color: 0.5%,  0.63662-310
sn
.442129630 .500000000 m
.480237794 .500000000 l
.519786575 .500000000 l
.557870370 .500000000 l
sn
.557870370 .500000000 m
.615740741 .500000000 l
sn
% POLY# 6     end point (  0.60000000E+00, -0.15470651E-02,  0.00000000E+00 )
% curve, solid color, mesh 3 (automatic)
% eps_xyz, eps_color: 0.5%,  0.63662-310
sn
.615740741 .500000000 m
.653853825 .500000000 l
.693385660 .500000000 l
.731481481 .500000000 l
sn
.731481481 .500000000 m
.962962963 .500000000 l
sn
.000000 .200000 1.000000 c
.037037037 .500000000 m
.268518519 .500000000 l
sn
% POLY# 7     end point (  0.30000000E+00,  0.94547525E-02,  0.00000000E+00 )
% curve, solid color, mesh 5 (automatic)
% eps_xyz, eps_color: 0.5%,  0.10610-309
sn
.268518519 .500000000 m
.291182142 .500000000 l
.314571910 .500000000 l
.338203940 .500000000 l
.361594351 .500000000 l
.384259259 .500000000 l
sn
.384259259 .500000000 m
.442129630 .500000000 l
sn
% POLY# 8     end point (  0.45000000E+00,  0.75214021E-02,  0.00000000E+00 )
% curve, solid color, mesh 5 (automatic)
% eps_xyz, eps_color: 0.5%,  0.10610-309
sn
.442129630 .500000000 m
.464843951 .500000000 l
.488234660 .500000000 l
.511842283 .500000000 l
.535207345 .500000000 l
.557870370 .500000000 l
sn
.557870370 .500000000 m
.615740741 .500000000 l
sn
% POLY# 9     end point (  0.60000000E+00,  0.11777039E-01,  0.00000000E+00 )
% curve, solid color, mesh 5 (automatic)
% eps_xyz, eps_color: 0.5%,  0.10610-309
sn
.615740741 .500000000 m
.638435238 .500000000 l
.661814329 .500000000 l
.685420245 .500000000 l
.708795219 .500000000 l
.731481481 .500000000 l
sn
.731481481 .500000000 m
.962962963 .500000000 l
sn
.000000 .200000 1.000000 c
.037037037 .500000000 m
.268518519 .500000000 l
sn
% POLY# 10     end point (  0.30000000E+00, -0.94547525E-02,  0.00000000E+00 )
% curve, solid color, mesh 5 (automatic)
% eps_xyz, eps_color: 0.5%,  0.10610-309
sn
.268518519 .500000000 m
.291182142 .500000000 l
.314571910 .500000000 l
.338203940 .500000000 l
.361594351 .500000000 l
.384259259 .500000000 l
sn
.384259259 .500000000 m
.442129630 .500000000 l
sn
% POLY# 11     end point (  0.45000000E+00, -0.75214021E-02,  0.00000000E+00 )
% curve, solid color, mesh 5 (automatic)
% eps_xyz, eps_color: 0.5%,  0.10610-309
sn
.442129630 .500000000 m
.464843951 .500000000 l
.488234660 .500000000 l
.511842283 .500000000 l
.535207345 .500000000 l
.557870370 .500000000 l
sn
.557870370 .500000000 m
.615740741 .500000000 l
sn
% POLY# 12     end point (  0.60000000E+00, -0.11777039E-01,  0.00000000E+00 )
% curve, solid color, mesh 5 (automatic)
% eps_xyz, eps_color: 0.5%,  0.10610-309
sn
.615740741 .500000000 m
.638435238 .500000000 l
.661814329 .500000000 l
.685420245 .500000000 l
.708795219 .500000000 l
.731481481 .500000000 l
sn
.731481481 .500000000 m
.962962963 .500000000 l
sn
.000000 .200000 1.000000 c
.037037037 .500000000 m
.268518519 .500000000 l
sn
% POLY# 13     end point (  0.30000000E+00,  0.44830395E-02,  0.00000000E+00 )
% curve, solid color, mesh 3 (automatic)
% eps_xyz, eps_color: 0.5%,  0.63662-310
sn
.268518519 .500000000 m
.306666070 .500000000 l
.346117032 .500000000 l
.384259259 .500000000 l
sn
.384259259 .500000000 m
.442129630 .500000000 l
sn
% POLY# 14     end point (  0.45000000E+00,  0.40192426E-02,  0.00000000E+00 )
% curve, solid color, mesh 4 (automatic)
% eps_xyz, eps_color: 0.5%,  0.84882-310
sn
.442129630 .500000000 m
.470563511 .500000000 l
.500037142 .500000000 l
.529492202 .500000000 l
.557870370 .500000000 l
sn
.557870370 .500000000 m
.615740741 .500000000 l
sn
% POLY# 15     end point (  0.60000000E+00,  0.67156603E-02,  0.00000000E+00 )
% curve, solid color, mesh 4 (automatic)
% eps_xyz, eps_color: 0.5%,  0.84882-310
sn
.615740741 .500000000 m
.644162912 .500000000 l
.673620729 .500000000 l
.703073737 .500000000 l
.731481481 .500000000 l
sn
.731481481 .500000000 m
.962962963 .500000000 l
sn
.000000 .200000 1.000000 c
.037037037 .500000000 m
.268518519 .500000000 l
sn
% POLY# 16     end point (  0.30000000E+00,  0.49712244E-02,  0.00000000E+00 )
% curve, solid color, mesh 4 (automatic)
% eps_xyz, eps_color: 0.5%,  0.84882-310
sn
.268518519 .500000000 m
.296911447 .500000000 l
.326384698 .500000000 l
.355860045 .500000000 l
.384259259 .500000000 l
sn
.384259259 .500000000 m
.442129630 .500000000 l
sn
% POLY# 17     end point (  0.45000000E+00,  0.35341925E-02,  0.00000000E+00 )
% curve, solid color, mesh 4 (automatic)
% eps_xyz, eps_color: 0.5%,  0.84882-310
sn
.442129630 .500000000 m
.470530224 .500000000 l
.499998466 .500000000 l
.529467476 .500000000 l
.557870370 .500000000 l
sn
.557870370 .500000000 m
.615740741 .500000000 l
sn
% POLY# 18     end point (  0.60000000E+00,  0.51643480E-02,  0.00000000E+00 )
% curve, solid color, mesh 4 (automatic)
% eps_xyz, eps_color: 0.5%,  0.84882-310
sn
.615740741 .500000000 m
.644138024 .500000000 l
.673614496 .500000000 l
.703089276 .500000000 l
.731481481 .500000000 l
sn
.731481481 .500000000 m
.962962963 .500000000 l
sn
.000000 .200000 1.000000 c
.037037037 .500000000 m
.268518519 .500000000 l
sn
% POLY# 19     end point (  0.30000000E+00, -0.49712244E-02,  0.00000000E+00 )
% curve, solid color, mesh 4 (automatic)
% eps_xyz, eps_color: 0.5%,  0.84882-310
sn
.268518519 .500000000 m
.296911447 .500000000 l
.326384698 .500000000 l
.355860045 .500000000 l
.384259259 .500000000 l
sn
.384259259 .500000000 m
.442129630 .500000000 l
sn
% POLY# 20     end point (  0.45000000E+00, -0.35341925E-02,  0.00000000E+00 )
% curve, solid color, mesh 4 (automatic)
% eps_xyz, eps_color: 0.5%,  0.84882-310
sn
.442129630 .500000000 m
.470530224 .500000000 l
.499998466 .500000000 l
.529467476 .500000000 l
.557870370 .500000000 l
sn
.557870370 .500000000 m
.615740741 .500000000 l
sn
% POLY# 21     end point (  0.60000000E+00, -0.51643480E-02,  0.00000000E+00 )
% curve, solid color, mesh 4 (automatic)
% eps_xyz, eps_color: 0.5%,  0.84882-310
sn
.615740741 .500000000 m
.644138024 .500000000 l
.673614496 .500000000 l
.703089276 .500000000 l
.731481481 .500000000 l
sn
.731481481 .500000000 m
.962962963 .500000000 l
sn
.000000 .200000 1.000000 c
.037037037 .500000000 m
.268518519 .500000000 l
sn
% POLY# 22     end point (  0.30000000E+00, -0.44830395E-02,  0.00000000E+00 )
% curve, solid color, mesh 3 (automatic)
% eps_xyz, eps_color: 0.5%,  0.63662-310
sn
.268518519 .500000000 m
.306666070 .500000000 l
.346117032 .500000000 l
.384259259 .500000000 l
sn
.384259259 .500000000 m
.442129630 .500000000 l
sn
% POLY# 23     end point (  0.45000000E+00, -0.40192426E-02,  0.00000000E+00 )
% curve, solid color, mesh 4 (automatic)
% eps_xyz, eps_color: 0.5%,  0.84882-310
sn
.442129630 .500000000 m
.470563511 .500000000 l
.500037142 .500000000 l
.529492202 .500000000 l
.557870370 .500000000 l
sn
.557870370 .500000000 m
.615740741 .500000000 l
sn
% POLY# 24     end point (  0.60000000E+00, -0.67156603E-02,  0.00000000E+00 )
% curve, solid color, mesh 4 (automatic)
% eps_xyz, eps_color: 0.5%,  0.84882-310
sn
.615740741 .500000000 m
.644162912 .500000000 l
.673620729 .500000000 l
.703073737 .500000000 l
.731481481 .500000000 l
sn
.731481481 .500000000 m
.962962963 .500000000 l
sn
1.000000 .000000 .000000 c
.037037037 .500000000 m
.268518519 .500000000 l
sn
% POLY# 25     end point (  0.30000000E+00, -0.43684601E-03,  0.00000000E+00 )
% curve, solid color, mesh 3 (automatic)
% eps_xyz, eps_color: 0.5%,  0.63662-310
sn
.268518519 .500000000 m
.306601892 .500000000 l
.346148753 .500000000 l
.384259259 .500000000 l
sn
.384259259 .500000000 m
.442129630 .500000000 l
sn
% POLY# 26     end point (  0.45000000E+00,  0.63779529E-03,  0.00000000E+00 )
% curve, solid color, mesh 3 (automatic)
% eps_xyz, eps_color: 0.5%,  0.63662-310
sn
.442129630 .500000000 m
.480245515 .500000000 l
.519794757 .500000000 l
.557870370 .500000000 l
sn
.557870370 .500000000 m
.615740741 .500000000 l
sn
% POLY# 27     end point (  0.60000000E+00,  0.19147900E-02,  0.00000000E+00 )
% curve, solid color, mesh 3 (automatic)
% eps_xyz, eps_color: 0.5%,  0.63662-310
sn
.615740741 .500000000 m
.653863798 .500000000 l
.693386657 .500000000 l
.731481481 .500000000 l
sn
.731481481 .500000000 m
.962962963 .500000000 l
sn
1.000000 .000000 .000000 c
.037037037 .500000000 m
.268518519 .500000000 l
sn
% POLY# 28     end point (  0.30000000E+00,  0.43684601E-03,  0.00000000E+00 )
% curve, solid color, mesh 3 (automatic)
% eps_xyz, eps_color: 0.5%,  0.63662-310
sn
.268518519 .500000000 m
.306601892 .500000000 l
.346148753 .500000000 l
.384259259 .500000000 l
sn
.384259259 .500000000 m
.442129630 .500000000 l
sn
% POLY# 29     end point (  0.45000000E+00, -0.63779529E-03,  0.00000000E+00 )
% curve, solid color, mesh 3 (automatic)
% eps_xyz, eps_color: 0.5%,  0.63662-310
sn
.442129630 .500000000 m
.480245515 .500000000 l
.519794757 .500000000 l
.557870370 .500000000 l
sn
.557870370 .500000000 m
.615740741 .500000000 l
sn
% POLY# 30     end point (  0.60000000E+00, -0.19147900E-02,  0.00000000E+00 )
% curve, solid color, mesh 3 (automatic)
% eps_xyz, eps_color: 0.5%,  0.63662-310
sn
.615740741 .500000000 m
.653863798 .500000000 l
.693386657 .500000000 l
.731481481 .500000000 l
sn
.731481481 .500000000 m
.962962963 .500000000 l
sn
1.000000 .000000 .000000 c
.037037037 .500000000 m
.268518519 .500000000 l
sn
% POLY# 31     end point (  0.30000000E+00,  0.98844378E-02,  0.00000000E+00 )
% curve, solid color, mesh 5 (automatic)
% eps_xyz, eps_color: 0.5%,  0.10610-309
sn
.268518519 .500000000 m
.291185770 .500000000 l
.314566737 .500000000 l
.338188153 .500000000 l
.361576749 .500000000 l
.384259259 .500000000 l
sn
.384259259 .500000000 m
.442129630 .500000000 l
sn
% POLY# 32     end point (  0.45000000E+00,  0.65366637E-02,  0.00000000E+00 )
% curve, solid color, mesh 5 (automatic)
% eps_xyz, eps_color: 0.5%,  0.10610-309
sn
.442129630 .500000000 m
.464797269 .500000000 l
.488175796 .500000000 l
.511794577 .500000000 l
.535182980 .500000000 l
.557870370 .500000000 l
sn
.557870370 .500000000 m
.615740741 .500000000 l
sn
% POLY# 33     end point (  0.60000000E+00,  0.95476236E-02,  0.00000000E+00 )
% curve, solid color, mesh 5 (automatic)
% eps_xyz, eps_color: 0.5%,  0.10610-309
sn
.615740741 .500000000 m
.638406648 .500000000 l
.661798922 .500000000 l
.685432317 .500000000 l
.708821585 .500000000 l
.731481481 .500000000 l
sn
.731481481 .500000000 m
.962962963 .500000000 l
sn
1.000000 .000000 .000000 c
.037037037 .500000000 m
.268518519 .500000000 l
sn
% POLY# 34     end point (  0.30000000E+00, -0.98844378E-02,  0.00000000E+00 )
% curve, solid color, mesh 5 (automatic)
% eps_xyz, eps_color: 0.5%,  0.10610-309
sn
.268518519 .500000000 m
.291185770 .500000000 l
.314566737 .500000000 l
.338188153 .500000000 l
.361576749 .500000000 l
.384259259 .500000000 l
sn
.384259259 .500000000 m
.442129630 .500000000 l
sn
% POLY# 35     end point (  0.45000000E+00, -0.65366637E-02,  0.00000000E+00 )
% curve, solid color, mesh 5 (automatic)
% eps_xyz, eps_color: 0.5%,  0.10610-309
sn
.442129630 .500000000 m
.464797269 .500000000 l
.488175796 .500000000 l
.511794577 .500000000 l
.535182980 .500000000 l
.557870370 .500000000 l
sn
.557870370 .500000000 m
.615740741 .500000000 l
sn
% POLY# 36     end point (  0.60000000E+00, -0.95476236E-02,  0.00000000E+00 )
% curve, solid color, mesh 5 (automatic)
% eps_xyz, eps_color: 0.5%,  0.10610-309
sn
.615740741 .500000000 m
.638406648 .500000000 l
.661798922 .500000000 l
.685432317 .500000000 l
.708821585 .500000000 l
.731481481 .500000000 l
sn
.731481481 .500000000 m
.962962963 .500000000 l
sn
1.000000 .000000 .000000 c
.037037037 .500000000 m
.268518519 .500000000 l
sn
% POLY# 37     end point (  0.30000000E+00,  0.47253429E-02,  0.00000000E+00 )
% curve, solid color, mesh 3 (automatic)
% eps_xyz, eps_color: 0.5%,  0.63662-310
sn
.268518519 .500000000 m
.306667058 .500000000 l
.346108720 .500000000 l
.384259259 .500000000 l
sn
.384259259 .500000000 m
.442129630 .500000000 l
sn
% POLY# 38     end point (  0.45000000E+00,  0.36171401E-02,  0.00000000E+00 )
% curve, solid color, mesh 4 (automatic)
% eps_xyz, eps_color: 0.5%,  0.84882-310
sn
.442129630 .500000000 m
.470541599 .500000000 l
.500013622 .500000000 l
.529478834 .500000000 l
.557870370 .500000000 l
sn
.557870370 .500000000 m
.615740741 .500000000 l
sn
% POLY# 39     end point (  0.60000000E+00,  0.58122439E-02,  0.00000000E+00 )
% curve, solid color, mesh 4 (automatic)
% eps_xyz, eps_color: 0.5%,  0.84882-310
sn
.615740741 .500000000 m
.644151685 .500000000 l
.673621273 .500000000 l
.703085781 .500000000 l
.731481481 .500000000 l
sn
.731481481 .500000000 m
.962962963 .500000000 l
sn
1.000000 .000000 .000000 c
.037037037 .500000000 m
.268518519 .500000000 l
sn
% POLY# 40     end point (  0.30000000E+00,  0.51618522E-02,  0.00000000E+00 )
% curve, solid color, mesh 4 (automatic)
% eps_xyz, eps_color: 0.5%,  0.84882-310
sn
.268518519 .500000000 m
.296909794 .500000000 l
.326375184 .500000000 l
.355847426 .500000000 l
.384259259 .500000000 l
sn
.384259259 .500000000 m
.442129630 .500000000 l
sn
% POLY# 41     end point (  0.45000000E+00,  0.29750028E-02,  0.00000000E+00 )
% curve, solid color, mesh 4 (automatic)
% eps_xyz, eps_color: 0.5%,  0.84882-310
sn
.442129630 .500000000 m
.470505636 .500000000 l
.499975861 .500000000 l
.529458155 .500000000 l
.557870370 .500000000 l
sn
.557870370 .500000000 m
.615740741 .500000000 l
sn
% POLY# 42     end point (  0.60000000E+00,  0.38902514E-02,  0.00000000E+00 )
% curve, solid color, mesh 3 (automatic)
% eps_xyz, eps_color: 0.5%,  0.63662-310
sn
.615740741 .500000000 m
.653877172 .500000000 l
.693338755 .500000000 l
.731481481 .500000000 l
sn
.731481481 .500000000 m
.962962963 .500000000 l
sn
1.000000 .000000 .000000 c
.037037037 .500000000 m
.268518519 .500000000 l
sn
% POLY# 43     end point (  0.30000000E+00, -0.51618522E-02,  0.00000000E+00 )
% curve, solid color, mesh 4 (automatic)
% eps_xyz, eps_color: 0.5%,  0.84882-310
sn
.268518519 .500000000 m
.296909794 .500000000 l
.326375184 .500000000 l
.355847426 .500000000 l
.384259259 .500000000 l
sn
.384259259 .500000000 m
.442129630 .500000000 l
sn
% POLY# 44     end point (  0.45000000E+00, -0.29750028E-02,  0.00000000E+00 )
% curve, solid color, mesh 4 (automatic)
% eps_xyz, eps_color: 0.5%,  0.84882-310
sn
.442129630 .500000000 m
.470505636 .500000000 l
.499975861 .500000000 l
.529458155 .500000000 l
.557870370 .500000000 l
sn
.557870370 .500000000 m
.615740741 .500000000 l
sn
% POLY# 45     end point (  0.60000000E+00, -0.38902514E-02,  0.00000000E+00 )
% curve, solid color, mesh 3 (automatic)
% eps_xyz, eps_color: 0.5%,  0.63662-310
sn
.615740741 .500000000 m
.653877172 .500000000 l
.693338755 .500000000 l
.731481481 .500000000 l
sn
.731481481 .500000000 m
.962962963 .500000000 l
sn
1.000000 .000000 .000000 c
.037037037 .500000000 m
.268518519 .500000000 l
sn
% POLY# 46     end point (  0.30000000E+00, -0.47253429E-02,  0.00000000E+00 )
% curve, solid color, mesh 3 (automatic)
% eps_xyz, eps_color: 0.5%,  0.63662-310
sn
.268518519 .500000000 m
.306667058 .500000000 l
.346108720 .500000000 l
.384259259 .500000000 l
sn
.384259259 .500000000 m
.442129630 .500000000 l
sn
% POLY# 47     end point (  0.45000000E+00, -0.36171401E-02,  0.00000000E+00 )
% curve, solid color, mesh 4 (automatic)
% eps_xyz, eps_color: 0.5%,  0.84882-310
sn
.442129630 .500000000 m
.470541599 .500000000 l
.500013622 .500000000 l
.529478834 .500000000 l
.557870370 .500000000 l
sn
.557870370 .500000000 m
.615740741 .500000000 l
sn
% POLY# 48     end point (  0.60000000E+00, -0.58122439E-02,  0.00000000E+00 )
% curve, solid color, mesh 4 (automatic)
% eps_xyz, eps_color: 0.5%,  0.84882-310
sn
.615740741 .500000000 m
.644151685 .500000000 l
.673621273 .500000000 l
.703085781 .500000000 l
.731481481 .500000000 l
sn
.731481481 .500000000 m
.962962963 .500000000 l
sn
.000000 .200000 1.000000 c
.037037037 .492283951 m
.268518519 .492283951 l
sn
% POLY# 49     end point (  0.30000000E+00,  0.00000000E+00, -0.15180056E-02 )
% curve, solid color, mesh 3 (automatic)
% eps_xyz, eps_color: 0.5%,  0.63662-310
sn
.268518519 .492283951 m
.306642567 .492044243 l
.346171829 .490916323 l
.384259259 .488286994 l
sn
.384259259 .488286994 m
.442129630 .482854218 l
sn
% POLY# 50     end point (  0.45000000E+00,  0.00000000E+00, -0.20952543E-02 )
% curve, solid color, mesh 3 (automatic)
% eps_xyz, eps_color: 0.5%,  0.63662-310
sn
.442129630 .482854218 m
.480253213 .480616123 l
.519741333 .480992746 l
.557870370 .483832914 l
sn
.557870370 .483832914 m
.615740741 .489907679 l
sn
% POLY# 51     end point (  0.60000000E+00,  0.00000000E+00, -0.52704530E-03 )
% curve, solid color, mesh 3 (automatic)
% eps_xyz, eps_color: 0.5%,  0.63662-310
sn
.615740741 .489907679 m
.653814239 .492938910 l
.693353875 .494639914 l
.731481481 .495933292 l
sn
.731481481 .495933292 m
.962962963 .504392188 l
sn
.000000 .200000 1.000000 c
.037037037 .507716049 m
.268518519 .507716049 l
sn
% POLY# 52     end point (  0.30000000E+00,  0.00000000E+00,  0.15180056E-02 )
% curve, solid color, mesh 3 (automatic)
% eps_xyz, eps_color: 0.5%,  0.63662-310
sn
.268518519 .507716049 m
.306642567 .507955757 l
.346171829 .509083677 l
.384259259 .511713006 l
sn
.384259259 .511713006 m
.442129630 .517145782 l
sn
% POLY# 53     end point (  0.45000000E+00,  0.00000000E+00,  0.20952543E-02 )
% curve, solid color, mesh 3 (automatic)
% eps_xyz, eps_color: 0.5%,  0.63662-310
sn
.442129630 .517145782 m
.480253213 .519383877 l
.519741333 .519007254 l
.557870370 .516167086 l
sn
.557870370 .516167086 m
.615740741 .510092321 l
sn
% POLY# 54     end point (  0.60000000E+00,  0.00000000E+00,  0.52704530E-03 )
% curve, solid color, mesh 3 (automatic)
% eps_xyz, eps_color: 0.5%,  0.63662-310
sn
.615740741 .510092321 m
.653814239 .507061090 l
.693353875 .505360086 l
.731481481 .504066708 l
sn
.731481481 .504066708 m
.962962963 .495607812 l
sn
.000000 .200000 1.000000 c
.037037037 .500000000 m
.268518519 .573683360 l
sn
% POLY# 55     end point (  0.30000000E+00,  0.00000000E+00,  0.19116050E-01 )
% curve, solid color, mesh 8 (automatic)
% eps_xyz, eps_color: 0.5%,  0.16976-309
sn
.268518519 .573683360 m
.282868860 .578344388 l
.297470621 .583228952 l
.312214843 .588877585 l
.326992566 .595830818 l
.341694829 .604629182 l
.356212672 .615813211 l
.370437136 .629923436 l
.384259259 .647500389 l
sn
.384259259 .647500389 m
.442129630 .728607059 l
sn
% POLY# 56     end point (  0.45000000E+00,  0.00000000E+00,  0.29340999E-01 )
% curve, solid color, mesh 9 (automatic)
% eps_xyz, eps_color: 0.5%,  0.19098-309
sn
.442129630 .728607059 m
.454845158 .744695317 l
.467669312 .756667793 l
.480571026 .764538336 l
.493519235 .768320796 l
.506482871 .768029023 l
.519430868 .763676867 l
.532332162 .755278179 l
.545155684 .742846806 l
.557870370 .726396600 l
sn
.557870370 .726396600 m
.615740741 .643857859 l
sn
% POLY# 57     end point (  0.60000000E+00,  0.00000000E+00,  0.85790807E-02 )
% curve, solid color, mesh 8 (automatic)
% eps_xyz, eps_color: 0.5%,  0.16976-309
sn
.615740741 .643857859 m
.629539510 .626019219 l
.643754870 .611661953 l
.658274071 .600206942 l
.672984365 .591075070 l
.687773001 .583687219 l
.702527232 .577464270 l
.717134309 .571827106 l
.731481481 .566196610 l
sn
.731481481 .566196610 m
.962962963 .475402644 l
sn
.000000 .200000 1.000000 c
.037037037 .500000000 m
.268518519 .426316640 l
sn
% POLY# 58     end point (  0.30000000E+00,  0.00000000E+00, -0.19116050E-01 )
% curve, solid color, mesh 8 (automatic)
% eps_xyz, eps_color: 0.5%,  0.16976-309
sn
.268518519 .426316640 m
.282868860 .421655612 l
.297470621 .416771048 l
.312214843 .411122415 l
.326992566 .404169182 l
.341694829 .395370818 l
.356212672 .384186789 l
.370437136 .370076564 l
.384259259 .352499611 l
sn
.384259259 .352499611 m
.442129630 .271392941 l
sn
% POLY# 59     end point (  0.45000000E+00,  0.00000000E+00, -0.29340999E-01 )
% curve, solid color, mesh 9 (automatic)
% eps_xyz, eps_color: 0.5%,  0.19098-309
sn
.442129630 .271392941 m
.454845158 .255304683 l
.467669312 .243332207 l
.480571026 .235461664 l
.493519235 .231679204 l
.506482871 .231970977 l
.519430868 .236323133 l
.532332162 .244721821 l
.545155684 .257153194 l
.557870370 .273603400 l
sn
.557870370 .273603400 m
.615740741 .356142141 l
sn
% POLY# 60     end point (  0.60000000E+00,  0.00000000E+00, -0.85790807E-02 )
% curve, solid color, mesh 8 (automatic)
% eps_xyz, eps_color: 0.5%,  0.16976-309
sn
.615740741 .356142141 m
.629539510 .373980781 l
.643754870 .388338047 l
.658274071 .399793058 l
.672984365 .408924930 l
.687773001 .416312781 l
.702527232 .422535730 l
.717134309 .428172894 l
.731481481 .433803390 l
sn
.731481481 .433803390 m
.962962963 .524597356 l
sn
.000000 .200000 1.000000 c
.037037037 .496141975 m
.268518519 .532947487 l
sn
% POLY# 61     end point (  0.30000000E+00,  0.00000000E+00,  0.87075785E-02 )
% curve, solid color, mesh 6 (automatic)
% eps_xyz, eps_color: 0.5%,  0.12732-309
sn
.268518519 .532947487 m
.287421233 .535926200 l
.306888748 .539125194 l
.326613685 .543197675 l
.346288668 .548796849 l
.365606318 .556575924 l
.384259259 .567188105 l
sn
.384259259 .567188105 m
.442129630 .604485447 l
sn
% POLY# 62     end point (  0.45000000E+00,  0.00000000E+00,  0.13766808E-01 )
% curve, solid color, mesh 6 (automatic)
% eps_xyz, eps_color: 0.5%,  0.12732-309
sn
.442129630 .604485447 m
.461071021 .615012357 l
.480431426 .621483754 l
.500001203 .623870197 l
.519570714 .622142242 l
.538930316 .616270446 l
.557870370 .606225367 l
sn
.557870370 .606225367 m
.615740741 .570136109 l
sn
% POLY# 63     end point (  0.60000000E+00,  0.00000000E+00,  0.51416583E-02 )
% curve, solid color, mesh 6 (automatic)
% eps_xyz, eps_color: 0.5%,  0.12732-309
sn
.615740741 .570136109 m
.634416737 .559878345 l
.653738218 .552469843 l
.673405309 .547327844 l
.693118134 .543869592 l
.712576817 .541512326 l
.731481481 .539673289 l
sn
.731481481 .539673289 m
.962962963 .518531400 l
sn
.000000 .200000 1.000000 c
.037037037 .503858025 m
.268518519 .540663536 l
sn
% POLY# 64     end point (  0.30000000E+00,  0.00000000E+00,  0.10234914E-01 )
% curve, solid color, mesh 6 (automatic)
% eps_xyz, eps_color: 0.5%,  0.12732-309
sn
.268518519 .540663536 m
.287460699 .543702286 l
.306937600 .547110875 l
.326652564 .551615777 l
.346308934 .557943465 l
.365610051 .566820416 l
.384259259 .578973101 l
sn
.384259259 .578973101 m
.442129630 .621766606 l
sn
% POLY# 65     end point (  0.45000000E+00,  0.00000000E+00,  0.15841697E-01 )
% curve, solid color, mesh 7 (automatic)
% eps_xyz, eps_color: 0.5%,  0.14854-309
sn
.442129630 .621766606 m
.458364554 .632369958 l
.474898828 .639467677 l
.491612735 .643055863 l
.508386558 .643130618 l
.525100583 .639688045 l
.541635092 .632724244 l
.557870370 .622235318 l
sn
.557870370 .622235318 m
.615740741 .579801352 l
sn
% POLY# 66     end point (  0.60000000E+00,  0.00000000E+00,  0.55264597E-02 )
% curve, solid color, mesh 6 (automatic)
% eps_xyz, eps_color: 0.5%,  0.12732-309
sn
.615740741 .579801352 m
.634396705 .567754604 l
.653698868 .558991770 l
.673352828 .552805993 l
.693064184 .548490415 l
.712538536 .545338182 l
.731481481 .542642436 l
sn
.731481481 .542642436 m
.962962963 .510515390 l
sn
.000000 .200000 1.000000 c
.037037037 .496141975 m
.268518519 .459336464 l
sn
% POLY# 67     end point (  0.30000000E+00,  0.00000000E+00, -0.10234914E-01 )
% curve, solid color, mesh 6 (automatic)
% eps_xyz, eps_color: 0.5%,  0.12732-309
sn
.268518519 .459336464 m
.287460699 .456297714 l
.306937600 .452889125 l
.326652564 .448384223 l
.346308934 .442056535 l
.365610051 .433179584 l
.384259259 .421026899 l
sn
.384259259 .421026899 m
.442129630 .378233394 l
sn
% POLY# 68     end point (  0.45000000E+00,  0.00000000E+00, -0.15841697E-01 )
% curve, solid color, mesh 7 (automatic)
% eps_xyz, eps_color: 0.5%,  0.14854-309
sn
.442129630 .378233394 m
.458364554 .367630042 l
.474898828 .360532323 l
.491612735 .356944137 l
.508386558 .356869382 l
.525100583 .360311955 l
.541635092 .367275756 l
.557870370 .377764682 l
sn
.557870370 .377764682 m
.615740741 .420198648 l
sn
% POLY# 69     end point (  0.60000000E+00,  0.00000000E+00, -0.55264597E-02 )
% curve, solid color, mesh 6 (automatic)
% eps_xyz, eps_color: 0.5%,  0.12732-309
sn
.615740741 .420198648 m
.634396705 .432245396 l
.653698868 .441008230 l
.673352828 .447194007 l
.693064184 .451509585 l
.712538536 .454661818 l
.731481481 .457357564 l
sn
.731481481 .457357564 m
.962962963 .489484610 l
sn
.000000 .200000 1.000000 c
.037037037 .503858025 m
.268518519 .467052513 l
sn
% POLY# 70     end point (  0.30000000E+00,  0.00000000E+00, -0.87075785E-02 )
% curve, solid color, mesh 6 (automatic)
% eps_xyz, eps_color: 0.5%,  0.12732-309
sn
.268518519 .467052513 m
.287421233 .464073800 l
.306888748 .460874806 l
.326613685 .456802325 l
.346288668 .451203151 l
.365606318 .443424076 l
.384259259 .432811895 l
sn
.384259259 .432811895 m
.442129630 .395514553 l
sn
% POLY# 71     end point (  0.45000000E+00,  0.00000000E+00, -0.13766808E-01 )
% curve, solid color, mesh 6 (automatic)
% eps_xyz, eps_color: 0.5%,  0.12732-309
sn
.442129630 .395514553 m
.461071021 .384987643 l
.480431426 .378516246 l
.500001203 .376129803 l
.519570714 .377857758 l
.538930316 .383729554 l
.557870370 .393774633 l
sn
.557870370 .393774633 m
.615740741 .429863891 l
sn
% POLY# 72     end point (  0.60000000E+00,  0.00000000E+00, -0.51416583E-02 )
% curve, solid color, mesh 6 (automatic)
% eps_xyz, eps_color: 0.5%,  0.12732-309
sn
.615740741 .429863891 m
.634416737 .440121655 l
.653738218 .447530157 l
.673405309 .452672156 l
.693118134 .456130408 l
.712576817 .458487674 l
.731481481 .460326711 l
sn
.731481481 .460326711 m
.962962963 .481468600 l
sn
1.000000 .000000 .000000 c
.037037037 .492283951 m
.268518519 .492283951 l
sn
% POLY# 73     end point (  0.30000000E+00,  0.00000000E+00, -0.15704731E-02 )
% curve, solid color, mesh 3 (automatic)
% eps_xyz, eps_color: 0.5%,  0.63662-310
sn
.268518519 .492283951 m
.306640901 .491963593 l
.346169019 .490665058 l
.384259259 .487882152 l
sn
.384259259 .487882152 m
.442129630 .481696780 l
sn
% POLY# 74     end point (  0.45000000E+00,  0.00000000E+00, -0.21649587E-02 )
% curve, solid color, mesh 3 (automatic)
% eps_xyz, eps_color: 0.5%,  0.63662-310
sn
.442129630 .481696780 m
.480252005 .479506319 l
.519736133 .480141303 l
.557870370 .483295071 l
sn
.557870370 .483295071 m
.615740741 .490488030 l
sn
% POLY# 75     end point (  0.60000000E+00,  0.00000000E+00, -0.23106338E-03 )
% curve, solid color, mesh 3 (automatic)
% eps_xyz, eps_color: 0.5%,  0.63662-310
sn
.615740741 .490488030 m
.653811393 .493910567 l
.693356468 .496191403 l
.731481481 .498217104 l
sn
.731481481 .498217104 m
.962962963 .512898549 l
sn
1.000000 .000000 .000000 c
.037037037 .507716049 m
.268518519 .507716049 l
sn
% POLY# 76     end point (  0.30000000E+00,  0.00000000E+00,  0.15704731E-02 )
% curve, solid color, mesh 3 (automatic)
% eps_xyz, eps_color: 0.5%,  0.63662-310
sn
.268518519 .507716049 m
.306640901 .508036407 l
.346169019 .509334942 l
.384259259 .512117848 l
sn
.384259259 .512117848 m
.442129630 .518303220 l
sn
% POLY# 77     end point (  0.45000000E+00,  0.00000000E+00,  0.21649587E-02 )
% curve, solid color, mesh 3 (automatic)
% eps_xyz, eps_color: 0.5%,  0.63662-310
sn
.442129630 .518303220 m
.480252005 .520493681 l
.519736133 .519858697 l
.557870370 .516704929 l
sn
.557870370 .516704929 m
.615740741 .509511970 l
sn
% POLY# 78     end point (  0.60000000E+00,  0.00000000E+00,  0.23106338E-03 )
% curve, solid color, mesh 3 (automatic)
% eps_xyz, eps_color: 0.5%,  0.63662-310
sn
.615740741 .509511970 m
.653811393 .506089433 l
.693356468 .503808597 l
.731481481 .501782896 l
sn
.731481481 .501782896 m
.962962963 .487101451 l
sn
1.000000 .000000 .000000 c
.037037037 .500000000 m
.268518519 .581409750 l
sn
% POLY# 79     end point (  0.30000000E+00,  0.00000000E+00,  0.21727960E-01 )
% curve, solid color, mesh 8 (automatic)
% eps_xyz, eps_color: 0.5%,  0.16976-309
sn
.268518519 .581409750 m
.282898278 .586399618 l
.297507847 .592172538 l
.312244869 .599164222 l
.327006985 .607810382 l
.341691840 .618546730 l
.356197075 .631808975 l
.370420334 .648032832 l
.384259259 .667654009 l
sn
.384259259 .667654009 m
.442129630 .766370681 l
sn
% POLY# 80     end point (  0.45000000E+00,  0.00000000E+00,  0.32412114E-01 )
% curve, solid color, mesh 10 (automatic)
% eps_xyz, eps_color: 0.5%,  0.21220-309
sn
.442129630 .766370681 m
.453585710 .782276006 l
.465120857 .794063799 l
.476715253 .801817046 l
.488349081 .805618735 l
.500002525 .805551854 l
.511655766 .801699391 l
.523288989 .794144334 l
.534882375 .782969669 l
.546416108 .768258386 l
.557870370 .750093471 l
sn
.557870370 .750093471 m
.615740741 .640466138 l
sn
% POLY# 81     end point (  0.60000000E+00,  0.00000000E+00,  0.25320696E-02 )
% curve, solid color, mesh 8 (automatic)
% eps_xyz, eps_color: 0.5%,  0.16976-309
sn
.615740741 .640466138 m
.629437043 .618875495 l
.643622222 .600379103 l
.658162022 .584354777 l
.672922192 .570180328 l
.687768477 .557233570 l
.702566622 .544892317 l
.717182375 .532534380 l
.731481481 .519537574 l
sn
.731481481 .519537574 m
.962962963 .283203674 l
sn
1.000000 .000000 .000000 c
.037037037 .500000000 m
.268518519 .418590250 l
sn
% POLY# 82     end point (  0.30000000E+00,  0.00000000E+00, -0.21727960E-01 )
% curve, solid color, mesh 8 (automatic)
% eps_xyz, eps_color: 0.5%,  0.16976-309
sn
.268518519 .418590250 m
.282898278 .413600382 l
.297507847 .407827462 l
.312244869 .400835778 l
.327006985 .392189618 l
.341691840 .381453270 l
.356197075 .368191025 l
.370420334 .351967168 l
.384259259 .332345991 l
sn
.384259259 .332345991 m
.442129630 .233629319 l
sn
% POLY# 83     end point (  0.45000000E+00,  0.00000000E+00, -0.32412114E-01 )
% curve, solid color, mesh 10 (automatic)
% eps_xyz, eps_color: 0.5%,  0.21220-309
sn
.442129630 .233629319 m
.453585710 .217723994 l
.465120857 .205936201 l
.476715253 .198182954 l
.488349081 .194381265 l
.500002525 .194448146 l
.511655766 .198300609 l
.523288989 .205855666 l
.534882375 .217030331 l
.546416108 .231741614 l
.557870370 .249906529 l
sn
.557870370 .249906529 m
.615740741 .359533862 l
sn
% POLY# 84     end point (  0.60000000E+00,  0.00000000E+00, -0.25320696E-02 )
% curve, solid color, mesh 8 (automatic)
% eps_xyz, eps_color: 0.5%,  0.16976-309
sn
.615740741 .359533862 m
.629437043 .381124505 l
.643622222 .399620897 l
.658162022 .415645223 l
.672922192 .429819672 l
.687768477 .442766430 l
.702566622 .455107683 l
.717182375 .467465620 l
.731481481 .480462426 l
sn
.731481481 .480462426 m
.962962963 .716796326 l
sn
1.000000 .000000 .000000 c
.037037037 .496141975 m
.268518519 .536810681 l
sn
% POLY# 85     end point (  0.30000000E+00,  0.00000000E+00,  0.99302252E-02 )
% curve, solid color, mesh 6 (automatic)
% eps_xyz, eps_color: 0.5%,  0.12732-309
sn
.268518519 .536810681 m
.287435718 .540020808 l
.306900035 .543846862 l
.326613008 .548854431 l
.346276177 .555609103 l
.365591081 .564676466 l
.384259259 .576622108 l
sn
.384259259 .576622108 m
.442129630 .622258918 l
sn
% POLY# 86     end point (  0.45000000E+00,  0.00000000E+00,  0.15436903E-01 )
% curve, solid color, mesh 7 (automatic)
% eps_xyz, eps_color: 0.5%,  0.14854-309
sn
.442129630 .622258918 m
.458359369 .632375299 l
.474891433 .638892344 l
.491605357 .641856464 l
.508380676 .641314069 l
.525096928 .637311570 l
.541633647 .629895379 l
.557870370 .619111905 l
sn
.557870370 .619111905 m
.615740741 .571485257 l
sn
% POLY# 87     end point (  0.60000000E+00,  0.00000000E+00,  0.32537950E-02 )
% curve, solid color, mesh 6 (automatic)
% eps_xyz, eps_color: 0.5%,  0.12732-309
sn
.615740741 .571485257 m
.634374220 .558981552 l
.653685824 .549263167 l
.673363954 .541673284 l
.693097007 .535555082 l
.712573384 .530251741 l
.731481481 .525106443 l
sn
.731481481 .525106443 m
.962962963 .455430968 l
sn
1.000000 .000000 .000000 c
.037037037 .503858025 m
.268518519 .544526731 l
sn
% POLY# 88     end point (  0.30000000E+00,  0.00000000E+00,  0.11515632E-01 )
% curve, solid color, mesh 6 (automatic)
% eps_xyz, eps_color: 0.5%,  0.12732-309
sn
.268518519 .544526731 m
.287475186 .547822587 l
.306948668 .551924681 l
.326651390 .557456000 l
.346295779 .565039532 l
.365594260 .575298265 l
.384259259 .588855188 l
sn
.384259259 .588855188 m
.442129630 .640747497 l
sn
% POLY# 89     end point (  0.45000000E+00,  0.00000000E+00,  0.17562938E-01 )
% curve, solid color, mesh 7 (automatic)
% eps_xyz, eps_color: 0.5%,  0.14854-309
sn
.442129630 .640747497 m
.458387910 .652207767 l
.474919084 .659471618 l
.491614638 .662615391 l
.508366058 .661715426 l
.525064830 .656848062 l
.541602439 .648089640 l
.557870370 .635516501 l
sn
.557870370 .635516501 m
.615740741 .580280478 l
sn
% POLY# 90     end point (  0.60000000E+00,  0.00000000E+00,  0.32391992E-02 )
% curve, solid color, mesh 6 (automatic)
% eps_xyz, eps_color: 0.5%,  0.12732-309
sn
.615740741 .580280478 m
.634348014 .565799903 l
.653641318 .554458882 l
.673310985 .545482589 l
.693047347 .538096199 l
.712540735 .531524885 l
.731481481 .524993821 l
sn
.731481481 .524993821 m
.962962963 .435903367 l
sn
1.000000 .000000 .000000 c
.037037037 .496141975 m
.268518519 .455473269 l
sn
% POLY# 91     end point (  0.30000000E+00,  0.00000000E+00, -0.11515632E-01 )
% curve, solid color, mesh 6 (automatic)
% eps_xyz, eps_color: 0.5%,  0.12732-309
sn
.268518519 .455473269 m
.287475186 .452177413 l
.306948668 .448075319 l
.326651390 .442544000 l
.346295779 .434960468 l
.365594260 .424701735 l
.384259259 .411144812 l
sn
.384259259 .411144812 m
.442129630 .359252503 l
sn
% POLY# 92     end point (  0.45000000E+00,  0.00000000E+00, -0.17562938E-01 )
% curve, solid color, mesh 7 (automatic)
% eps_xyz, eps_color: 0.5%,  0.14854-309
sn
.442129630 .359252503 m
.458387910 .347792233 l
.474919084 .340528382 l
.491614638 .337384609 l
.508366058 .338284574 l
.525064830 .343151938 l
.541602439 .351910360 l
.557870370 .364483499 l
sn
.557870370 .364483499 m
.615740741 .419719522 l
sn
% POLY# 93     end point (  0.60000000E+00,  0.00000000E+00, -0.32391992E-02 )
% curve, solid color, mesh 6 (automatic)
% eps_xyz, eps_color: 0.5%,  0.12732-309
sn
.615740741 .419719522 m
.634348014 .434200097 l
.653641318 .445541118 l
.673310985 .454517411 l
.693047347 .461903801 l
.712540735 .468475115 l
.731481481 .475006179 l
sn
.731481481 .475006179 m
.962962963 .564096633 l
sn
1.000000 .000000 .000000 c
.037037037 .503858025 m
.268518519 .463189319 l
sn
% POLY# 94     end point (  0.30000000E+00,  0.00000000E+00, -0.99302252E-02 )
% curve, solid color, mesh 6 (automatic)
% eps_xyz, eps_color: 0.5%,  0.12732-309
sn
.268518519 .463189319 m
.287435718 .459979192 l
.306900035 .456153138 l
.326613008 .451145569 l
.346276177 .444390897 l
.365591081 .435323534 l
.384259259 .423377892 l
sn
.384259259 .423377892 m
.442129630 .377741082 l
sn
% POLY# 95     end point (  0.45000000E+00,  0.00000000E+00, -0.15436903E-01 )
% curve, solid color, mesh 7 (automatic)
% eps_xyz, eps_color: 0.5%,  0.14854-309
sn
.442129630 .377741082 m
.458359369 .367624701 l
.474891433 .361107656 l
.491605357 .358143536 l
.508380676 .358685931 l
.525096928 .362688430 l
.541633647 .370104621 l
.557870370 .380888095 l
sn
.557870370 .380888095 m
.615740741 .428514743 l
sn
% POLY# 96     end point (  0.60000000E+00,  0.00000000E+00, -0.32537950E-02 )
% curve, solid color, mesh 6 (automatic)
% eps_xyz, eps_color: 0.5%,  0.12732-309
sn
.615740741 .428514743 m
.634374220 .441018448 l
.653685824 .450736833 l
.673363954 .458326716 l
.693097007 .464444918 l
.712573384 .469748259 l
.731481481 .474893557 l
sn
.731481481 .474893557 m
.962962963 .544569032 l
sn
.000000 .000000 .000000 c
.037037037 .500000000 m
.268518519 .500000000 l
sn
% POLY# 97     end point (  0.30000000E+00, -0.46446649E-03,  0.00000000E+00 )
% curve, solid color, mesh 3 (automatic)
% eps_xyz, eps_color: 0.5%,  0.63662-310
sn
.268518519 .500000000 m
.306604790 .500000000 l
.346151300 .500000000 l
.384259259 .500000000 l
sn
.384259259 .500000000 m
.442129630 .500000000 l
sn
% POLY# 98     end point (  0.45000000E+00,  0.55434772E-03,  0.00000000E+00 )
% curve, solid color, mesh 3 (automatic)
% eps_xyz, eps_color: 0.5%,  0.63662-310
sn
.442129630 .500000000 m
.480241350 .500000000 l
.519790346 .500000000 l
.557870370 .500000000 l
sn
.557870370 .500000000 m
.615740741 .500000000 l
sn
% POLY# 99     end point (  0.60000000E+00,  0.17156885E-02,  0.00000000E+00 )
% curve, solid color, mesh 3 (automatic)
% eps_xyz, eps_color: 0.5%,  0.63662-310
sn
.615740741 .500000000 m
.653858415 .500000000 l
.693386140 .500000000 l
.731481481 .500000000 l
sn
.731481481 .500000000 m
.962962963 .500000000 l
sn
.000000 .000000 .000000 c
.037037037 .500000000 m
.268518519 .500000000 l
sn
% POLY# 100     end point (  0.30000000E+00,  0.46446649E-03,  0.00000000E+00 )
% curve, solid color, mesh 3 (automatic)
% eps_xyz, eps_color: 0.5%,  0.63662-310
sn
.268518519 .500000000 m
.306604790 .500000000 l
.346151300 .500000000 l
.384259259 .500000000 l
sn
.384259259 .500000000 m
.442129630 .500000000 l
sn
% POLY# 101     end point (  0.45000000E+00, -0.55434772E-03,  0.00000000E+00 )
% curve, solid color, mesh 3 (automatic)
% eps_xyz, eps_color: 0.5%,  0.63662-310
sn
.442129630 .500000000 m
.480241350 .500000000 l
.519790346 .500000000 l
.557870370 .500000000 l
sn
.557870370 .500000000 m
.615740741 .500000000 l
sn
% POLY# 102     end point (  0.60000000E+00, -0.17156885E-02,  0.00000000E+00 )
% curve, solid color, mesh 3 (automatic)
% eps_xyz, eps_color: 0.5%,  0.63662-310
sn
.615740741 .500000000 m
.653858415 .500000000 l
.693386140 .500000000 l
.731481481 .500000000 l
sn
.731481481 .500000000 m
.962962963 .500000000 l
sn
.000000 .000000 .000000 c
.037037037 .500000000 m
.268518519 .500000000 l
sn
% POLY# 103     end point (  0.30000000E+00,  0.96665831E-02,  0.00000000E+00 )
% curve, solid color, mesh 5 (automatic)
% eps_xyz, eps_color: 0.5%,  0.10610-309
sn
.268518519 .500000000 m
.291184773 .500000000 l
.314570867 .500000000 l
.338197908 .500000000 l
.361587003 .500000000 l
.384259259 .500000000 l
sn
.384259259 .500000000 m
.442129630 .500000000 l
sn
% POLY# 104     end point (  0.45000000E+00,  0.71093357E-02,  0.00000000E+00 )
% curve, solid color, mesh 5 (automatic)
% eps_xyz, eps_color: 0.5%,  0.10610-309
sn
.442129630 .500000000 m
.464823066 .500000000 l
.488207625 .500000000 l
.511819539 .500000000 l
.535195044 .500000000 l
.557870370 .500000000 l
sn
.557870370 .500000000 m
.615740741 .500000000 l
sn
% POLY# 105     end point (  0.60000000E+00,  0.10854248E-01,  0.00000000E+00 )
% curve, solid color, mesh 5 (automatic)
% eps_xyz, eps_color: 0.5%,  0.10610-309
sn
.615740741 .500000000 m
.638425193 .500000000 l
.661810425 .500000000 l
.685427505 .500000000 l
.708807501 .500000000 l
.731481481 .500000000 l
sn
.731481481 .500000000 m
.962962963 .500000000 l
sn
.000000 .000000 .000000 c
.037037037 .500000000 m
.268518519 .500000000 l
sn
% POLY# 106     end point (  0.30000000E+00, -0.96665831E-02,  0.00000000E+00 )
% curve, solid color, mesh 5 (automatic)
% eps_xyz, eps_color: 0.5%,  0.10610-309
sn
.268518519 .500000000 m
.291184773 .500000000 l
.314570867 .500000000 l
.338197908 .500000000 l
.361587003 .500000000 l
.384259259 .500000000 l
sn
.384259259 .500000000 m
.442129630 .500000000 l
sn
% POLY# 107     end point (  0.45000000E+00, -0.71093357E-02,  0.00000000E+00 )
% curve, solid color, mesh 5 (automatic)
% eps_xyz, eps_color: 0.5%,  0.10610-309
sn
.442129630 .500000000 m
.464823066 .500000000 l
.488207625 .500000000 l
.511819539 .500000000 l
.535195044 .500000000 l
.557870370 .500000000 l
sn
.557870370 .500000000 m
.615740741 .500000000 l
sn
% POLY# 108     end point (  0.60000000E+00, -0.10854248E-01,  0.00000000E+00 )
% curve, solid color, mesh 5 (automatic)
% eps_xyz, eps_color: 0.5%,  0.10610-309
sn
.615740741 .500000000 m
.638425193 .500000000 l
.661810425 .500000000 l
.685427505 .500000000 l
.708807501 .500000000 l
.731481481 .500000000 l
sn
.731481481 .500000000 m
.962962963 .500000000 l
sn
.000000 .000000 .000000 c
.037037037 .500000000 m
.268518519 .500000000 l
sn
% POLY# 109     end point (  0.30000000E+00,  0.46016438E-02,  0.00000000E+00 )
% curve, solid color, mesh 3 (automatic)
% eps_xyz, eps_color: 0.5%,  0.63662-310
sn
.268518519 .500000000 m
.306667184 .500000000 l
.346113764 .500000000 l
.384259259 .500000000 l
sn
.384259259 .500000000 m
.442129630 .500000000 l
sn
% POLY# 110     end point (  0.45000000E+00,  0.38545170E-02,  0.00000000E+00 )
% curve, solid color, mesh 4 (automatic)
% eps_xyz, eps_color: 0.5%,  0.84882-310
sn
.442129630 .500000000 m
.470553729 .500000000 l
.500026181 .500000000 l
.529485543 .500000000 l
.557870370 .500000000 l
sn
.557870370 .500000000 m
.615740741 .500000000 l
sn
% POLY# 111     end point (  0.60000000E+00,  0.63501358E-02,  0.00000000E+00 )
% curve, solid color, mesh 4 (automatic)
% eps_xyz, eps_color: 0.5%,  0.84882-310
sn
.615740741 .500000000 m
.644159327 .500000000 l
.673622123 .500000000 l
.703079414 .500000000 l
.731481481 .500000000 l
sn
.731481481 .500000000 m
.962962963 .500000000 l
sn
.000000 .000000 .000000 c
.037037037 .500000000 m
.268518519 .500000000 l
sn
% POLY# 112     end point (  0.30000000E+00,  0.50658612E-02,  0.00000000E+00 )
% curve, solid color, mesh 4 (automatic)
% eps_xyz, eps_color: 0.5%,  0.84882-310
sn
.268518519 .500000000 m
.296911241 .500000000 l
.326380988 .500000000 l
.355854686 .500000000 l
.384259259 .500000000 l
sn
.384259259 .500000000 m
.442129630 .500000000 l
sn
% POLY# 113     end point (  0.45000000E+00,  0.32965932E-02,  0.00000000E+00 )
% curve, solid color, mesh 4 (automatic)
% eps_xyz, eps_color: 0.5%,  0.84882-310
sn
.442129630 .500000000 m
.470519162 .500000000 l
.499987847 .500000000 l
.529462608 .500000000 l
.557870370 .500000000 l
sn
.557870370 .500000000 m
.615740741 .500000000 l
sn
% POLY# 114     end point (  0.60000000E+00,  0.46290175E-02,  0.00000000E+00 )
% curve, solid color, mesh 3 (automatic)
% eps_xyz, eps_color: 0.5%,  0.63662-310
sn
.615740741 .500000000 m
.653889537 .500000000 l
.693335165 .500000000 l
.731481481 .500000000 l
sn
.731481481 .500000000 m
.962962963 .500000000 l
sn
.000000 .000000 .000000 c
.037037037 .500000000 m
.268518519 .500000000 l
sn
% POLY# 115     end point (  0.30000000E+00, -0.50658612E-02,  0.00000000E+00 )
% curve, solid color, mesh 4 (automatic)
% eps_xyz, eps_color: 0.5%,  0.84882-310
sn
.268518519 .500000000 m
.296911241 .500000000 l
.326380988 .500000000 l
.355854686 .500000000 l
.384259259 .500000000 l
sn
.384259259 .500000000 m
.442129630 .500000000 l
sn
% POLY# 116     end point (  0.45000000E+00, -0.32965932E-02,  0.00000000E+00 )
% curve, solid color, mesh 4 (automatic)
% eps_xyz, eps_color: 0.5%,  0.84882-310
sn
.442129630 .500000000 m
.470519162 .500000000 l
.499987847 .500000000 l
.529462608 .500000000 l
.557870370 .500000000 l
sn
.557870370 .500000000 m
.615740741 .500000000 l
sn
% POLY# 117     end point (  0.60000000E+00, -0.46290175E-02,  0.00000000E+00 )
% curve, solid color, mesh 3 (automatic)
% eps_xyz, eps_color: 0.5%,  0.63662-310
sn
.615740741 .500000000 m
.653889537 .500000000 l
.693335165 .500000000 l
.731481481 .500000000 l
sn
.731481481 .500000000 m
.962962963 .500000000 l
sn
.000000 .000000 .000000 c
.037037037 .500000000 m
.268518519 .500000000 l
sn
% POLY# 118     end point (  0.30000000E+00, -0.46016438E-02,  0.00000000E+00 )
% curve, solid color, mesh 3 (automatic)
% eps_xyz, eps_color: 0.5%,  0.63662-310
sn
.268518519 .500000000 m
.306667184 .500000000 l
.346113764 .500000000 l
.384259259 .500000000 l
sn
.384259259 .500000000 m
.442129630 .500000000 l
sn
% POLY# 119     end point (  0.45000000E+00, -0.38545170E-02,  0.00000000E+00 )
% curve, solid color, mesh 4 (automatic)
% eps_xyz, eps_color: 0.5%,  0.84882-310
sn
.442129630 .500000000 m
.470553729 .500000000 l
.500026181 .500000000 l
.529485543 .500000000 l
.557870370 .500000000 l
sn
.557870370 .500000000 m
.615740741 .500000000 l
sn
% POLY# 120     end point (  0.60000000E+00, -0.63501358E-02,  0.00000000E+00 )
% curve, solid color, mesh 4 (automatic)
% eps_xyz, eps_color: 0.5%,  0.84882-310
sn
.615740741 .500000000 m
.644159327 .500000000 l
.673622123 .500000000 l
.703079414 .500000000 l
.731481481 .500000000 l
sn
.731481481 .500000000 m
.962962963 .500000000 l
sn
.000000 .000000 .000000 c
.037037037 .492283951 m
.268518519 .492283951 l
sn
% POLY# 121     end point (  0.30000000E+00,  0.00000000E+00, -0.15423509E-02 )
% curve, solid color, mesh 3 (automatic)
% eps_xyz, eps_color: 0.5%,  0.63662-310
sn
.268518519 .492283951 m
.306641784 .492006719 l
.346170520 .490799530 l
.384259259 .488099145 l
sn
.384259259 .488099145 m
.442129630 .482323052 l
sn
% POLY# 122     end point (  0.45000000E+00,  0.00000000E+00, -0.21288668E-02 )
% curve, solid color, mesh 3 (automatic)
% eps_xyz, eps_color: 0.5%,  0.63662-310
sn
.442129630 .482323052 m
.480252822 .480103110 l
.519739090 .480591889 l
.557870370 .483573559 l
sn
.557870370 .483573559 m
.615740741 .490155472 l
sn
% POLY# 123     end point (  0.60000000E+00,  0.00000000E+00, -0.39676287E-03 )
% curve, solid color, mesh 3 (automatic)
% eps_xyz, eps_color: 0.5%,  0.63662-310
sn
.615740741 .490155472 m
.653812877 .493363181 l
.693354877 .495320524 l
.731481481 .496938558 l
sn
.731481481 .496938558 m
.962962963 .508063425 l
sn
.000000 .000000 .000000 c
.037037037 .507716049 m
.268518519 .507716049 l
sn
% POLY# 124     end point (  0.30000000E+00,  0.00000000E+00,  0.15423509E-02 )
% curve, solid color, mesh 3 (automatic)
% eps_xyz, eps_color: 0.5%,  0.63662-310
sn
.268518519 .507716049 m
.306641784 .507993281 l
.346170520 .509200470 l
.384259259 .511900855 l
sn
.384259259 .511900855 m
.442129630 .517676948 l
sn
% POLY# 125     end point (  0.45000000E+00,  0.00000000E+00,  0.21288668E-02 )
% curve, solid color, mesh 3 (automatic)
% eps_xyz, eps_color: 0.5%,  0.63662-310
sn
.442129630 .517676948 m
.480252822 .519896890 l
.519739090 .519408111 l
.557870370 .516426441 l
sn
.557870370 .516426441 m
.615740741 .509844528 l
sn
% POLY# 126     end point (  0.60000000E+00,  0.00000000E+00,  0.39676287E-03 )
% curve, solid color, mesh 3 (automatic)
% eps_xyz, eps_color: 0.5%,  0.63662-310
sn
.615740741 .509844528 m
.653812877 .506636819 l
.693354877 .504679476 l
.731481481 .503061442 l
sn
.731481481 .503061442 m
.962962963 .491936575 l
sn
.000000 .000000 .000000 c
.037037037 .500000000 m
.268518519 .577256944 l
sn
% POLY# 127     end point (  0.30000000E+00,  0.00000000E+00,  0.20305508E-01 )
% curve, solid color, mesh 8 (automatic)
% eps_xyz, eps_color: 0.5%,  0.16976-309
sn
.268518519 .577256944 m
.282882358 .582064894 l
.297487786 .587346603 l
.312228829 .593596578 l
.326999515 .601309331 l
.341693873 .610979370 l
.356205931 .623101205 l
.370429717 .638169344 l
.384259259 .656678299 l
sn
.384259259 .656678299 m
.442129630 .745674499 l
sn
% POLY# 128     end point (  0.45000000E+00,  0.00000000E+00,  0.30795559E-01 )
% curve, solid color, mesh 9 (automatic)
% eps_xyz, eps_color: 0.5%,  0.19098-309
sn
.442129630 .745674499 m
.454855747 .762392724 l
.467683296 .774587373 l
.480583160 .782309998 l
.493526221 .785612149 l
.506483362 .784545376 l
.519425465 .779161229 l
.532323412 .769511260 l
.545148087 .755647018 l
.557870370 .737620055 l
sn
.557870370 .737620055 m
.615740741 .643189849 l
sn
% POLY# 129     end point (  0.60000000E+00,  0.00000000E+00,  0.61247773E-02 )
% curve, solid color, mesh 8 (automatic)
% eps_xyz, eps_color: 0.5%,  0.16976-309
sn
.615740741 .643189849 m
.629490235 .623677731 l
.643687524 .607532105 l
.658211296 .594144121 l
.672940238 .582904929 l
.687753040 .573205679 l
.702528389 .564437521 l
.717144973 .555991607 l
.731481481 .547259084 l
sn
.731481481 .547259084 m
.962962963 .398114679 l
sn
.000000 .000000 .000000 c
.037037037 .500000000 m
.268518519 .422743056 l
sn
% POLY# 130     end point (  0.30000000E+00,  0.00000000E+00, -0.20305508E-01 )
% curve, solid color, mesh 8 (automatic)
% eps_xyz, eps_color: 0.5%,  0.16976-309
sn
.268518519 .422743056 m
.282882358 .417935106 l
.297487786 .412653397 l
.312228829 .406403422 l
.326999515 .398690669 l
.341693873 .389020630 l
.356205931 .376898795 l
.370429717 .361830656 l
.384259259 .343321701 l
sn
.384259259 .343321701 m
.442129630 .254325501 l
sn
% POLY# 131     end point (  0.45000000E+00,  0.00000000E+00, -0.30795559E-01 )
% curve, solid color, mesh 9 (automatic)
% eps_xyz, eps_color: 0.5%,  0.19098-309
sn
.442129630 .254325501 m
.454855747 .237607276 l
.467683296 .225412627 l
.480583160 .217690002 l
.493526221 .214387851 l
.506483362 .215454624 l
.519425465 .220838771 l
.532323412 .230488740 l
.545148087 .244352982 l
.557870370 .262379945 l
sn
.557870370 .262379945 m
.615740741 .356810151 l
sn
% POLY# 132     end point (  0.60000000E+00,  0.00000000E+00, -0.61247773E-02 )
% curve, solid color, mesh 8 (automatic)
% eps_xyz, eps_color: 0.5%,  0.16976-309
sn
.615740741 .356810151 m
.629490235 .376322269 l
.643687524 .392467895 l
.658211296 .405855879 l
.672940238 .417095071 l
.687753040 .426794321 l
.702528389 .435562479 l
.717144973 .444008393 l
.731481481 .452740916 l
sn
.731481481 .452740916 m
.962962963 .601885321 l
sn
.000000 .000000 .000000 c
.037037037 .496141975 m
.268518519 .534734279 l
sn
% POLY# 133     end point (  0.30000000E+00,  0.00000000E+00,  0.92671176E-02 )
% curve, solid color, mesh 6 (automatic)
% eps_xyz, eps_color: 0.5%,  0.12732-309
sn
.268518519 .534734279 m
.287427858 .537817628 l
.306893911 .541300383 l
.326613376 .545796548 l
.346282956 .551920126 l
.365599350 .560285121 l
.384259259 .571505537 l
sn
.384259259 .571505537 m
.442129630 .612533063 l
sn
% POLY# 134     end point (  0.45000000E+00,  0.00000000E+00,  0.14544690E-01 )
% curve, solid color, mesh 6 (automatic)
% eps_xyz, eps_color: 0.5%,  0.12732-309
sn
.442129630 .612533063 m
.461084003 .623496038 l
.480440813 .630042506 l
.499998958 .632180681 l
.519557334 .629918771 l
.538914839 .623264991 l
.557870370 .612227549 l
sn
.557870370 .612227549 m
.615740741 .571037573 l
sn
% POLY# 135     end point (  0.60000000E+00,  0.00000000E+00,  0.43712390E-02 )
% curve, solid color, mesh 6 (automatic)
% eps_xyz, eps_color: 0.5%,  0.12732-309
sn
.615740741 .571037573 m
.634397425 .559771079 l
.653713387 .551355155 l
.673384201 .545166376 l
.693105439 .540581322 l
.712572675 .536976569 l
.731481481 .533728696 l
sn
.731481481 .533728696 m
.962962963 .492770003 l
sn
.000000 .000000 .000000 c
.037037037 .503858025 m
.268518519 .542450328 l
sn
% POLY# 136     end point (  0.30000000E+00,  0.00000000E+00,  0.10821108E-01 )
% curve, solid color, mesh 6 (automatic)
% eps_xyz, eps_color: 0.5%,  0.12732-309
sn
.268518519 .542450328 m
.287467316 .545605489 l
.306942651 .549328301 l
.326652018 .554298772 l
.346302912 .561196908 l
.365602827 .570702718 l
.384259259 .583496207 l
sn
.384259259 .583496207 m
.442129630 .630366556 l
sn
% POLY# 137     end point (  0.45000000E+00,  0.00000000E+00,  0.16645565E-01 )
% curve, solid color, mesh 7 (automatic)
% eps_xyz, eps_color: 0.5%,  0.14854-309
sn
.442129630 .630366556 m
.458376339 .641373259 l
.474909759 .648575672 l
.491615399 .651999926 l
.508378770 .651672155 l
.525085382 .647618488 l
.541620745 .639865059 l
.557870370 .628437999 l
sn
.557870370 .628437999 m
.615740741 .580334619 l
sn
% POLY# 138     end point (  0.60000000E+00,  0.00000000E+00,  0.45835053E-02 )
% curve, solid color, mesh 6 (automatic)
% eps_xyz, eps_color: 0.5%,  0.12732-309
sn
.615740741 .580334619 m
.634374342 .567194579 l
.653671184 .557307056 l
.673330792 .549926271 l
.693052694 .544306445 l
.712536415 .539701799 l
.731481481 .535366554 l
sn
.731481481 .535366554 m
.962962963 .479887396 l
sn
.000000 .000000 .000000 c
.037037037 .496141975 m
.268518519 .457549672 l
sn
% POLY# 139     end point (  0.30000000E+00,  0.00000000E+00, -0.10821108E-01 )
% curve, solid color, mesh 6 (automatic)
% eps_xyz, eps_color: 0.5%,  0.12732-309
sn
.268518519 .457549672 m
.287467316 .454394511 l
.306942651 .450671699 l
.326652018 .445701228 l
.346302912 .438803092 l
.365602827 .429297282 l
.384259259 .416503793 l
sn
.384259259 .416503793 m
.442129630 .369633444 l
sn
% POLY# 140     end point (  0.45000000E+00,  0.00000000E+00, -0.16645565E-01 )
% curve, solid color, mesh 7 (automatic)
% eps_xyz, eps_color: 0.5%,  0.14854-309
sn
.442129630 .369633444 m
.458376339 .358626741 l
.474909759 .351424328 l
.491615399 .348000074 l
.508378770 .348327845 l
.525085382 .352381512 l
.541620745 .360134941 l
.557870370 .371562001 l
sn
.557870370 .371562001 m
.615740741 .419665381 l
sn
% POLY# 141     end point (  0.60000000E+00,  0.00000000E+00, -0.45835053E-02 )
% curve, solid color, mesh 6 (automatic)
% eps_xyz, eps_color: 0.5%,  0.12732-309
sn
.615740741 .419665381 m
.634374342 .432805421 l
.653671184 .442692944 l
.673330792 .450073729 l
.693052694 .455693555 l
.712536415 .460298201 l
.731481481 .464633446 l
sn
.731481481 .464633446 m
.962962963 .520112604 l
sn
.000000 .000000 .000000 c
.037037037 .503858025 m
.268518519 .465265721 l
sn
% POLY# 142     end point (  0.30000000E+00,  0.00000000E+00, -0.92671176E-02 )
% curve, solid color, mesh 6 (automatic)
% eps_xyz, eps_color: 0.5%,  0.12732-309
sn
.268518519 .465265721 m
.287427858 .462182372 l
.306893911 .458699617 l
.326613376 .454203452 l
.346282956 .448079874 l
.365599350 .439714879 l
.384259259 .428494463 l
sn
.384259259 .428494463 m
.442129630 .387466937 l
sn
% POLY# 143     end point (  0.45000000E+00,  0.00000000E+00, -0.14544690E-01 )
% curve, solid color, mesh 6 (automatic)
% eps_xyz, eps_color: 0.5%,  0.12732-309
sn
.442129630 .387466937 m
.461084003 .376503962 l
.480440813 .369957494 l
.499998958 .367819319 l
.519557334 .370081229 l
.538914839 .376735009 l
.557870370 .387772451 l
sn
.557870370 .387772451 m
.615740741 .428962427 l
sn
% POLY# 144     end point (  0.60000000E+00,  0.00000000E+00, -0.43712390E-02 )
% curve, solid color, mesh 6 (automatic)
% eps_xyz, eps_color: 0.5%,  0.12732-309
sn
.615740741 .428962427 m
.634397425 .440228921 l
.653713387 .448644845 l
.673384201 .454833624 l
.693105439 .459418678 l
.712572675 .463023431 l
.731481481 .466271304 l
sn
.731481481 .466271304 m
.962962963 .507229997 l
sn
(Y-motion) .222222222 .037037037 ms
showpage
% 3D bounds of the COSY GR object:
%  x [  0.00000000E+00 ,  0.80000000E+00 ]
%  y [ -0.60000000E-01 ,  0.60000000E-01 ]
%  z [ -0.60000000E-01 ,  0.60000000E-01 ]
% 2D projection of the 3D bounds:
%  x [  0.00000000E+00 ,  0.80000000E+00 ]
%  y [ -0.60000000E-01 ,  0.60000000E-01 ]
% Projection angles (deg):  .00000  90.00000  .00000
% Total number of GR polynomial objects: 144
% Zoom bounds: none
%%EOF
