%!PS-Adobe-3.0
%%Creator: COSY INFINITY Graphics
%%Title: pic001.ps
%%BoundingBox: 50 21 550 771
%%Orientation: Landscape
%%Pages: 1
%%Page: 1 1
/sn {stroke newpath} bind def
/w {setlinewidth} def
/m {moveto} bind def
/l {lineto} bind def
/ms {newpath moveto gsave 1 1.5 scale show grestore} bind def
/t {moveto lineto lineto closepath gsave fill grestore stroke newpath} bind def
/tw {moveto lineto lineto closepath stroke newpath} bind def
/c {setrgbcolor} bind def % - color picture
%/c {add add 3 div setgray} bind def % - grayscale picture except for shfill GRPOLY objects
/Helvetica findfont 0.02 scalefont setfont
500 750 scale 1.100 0.0280 translate 90 rotate
1 setlinejoin 1 setlinecap
0.0015 setlinewidth 0 0 1 1 rectclip
.000000 .000000 .000000 c
.268518519 .114197531 m
.268518519 .885802469 l
.268518519 .885802469 l
.268518519 .114197531 l
.268518519 .114197531 l
sn
.268518519 .885802469 m
.384259259 .885802469 l
sn
.268518519 .114197531 m
.384259259 .114197531 l
sn
.268518519 .885802469 m
.384259259 .885802469 l
sn
.268518519 .114197531 m
.384259259 .114197531 l
sn
.384259259 .114197531 m
.384259259 .114197531 l
.384259259 .885802469 l
.384259259 .885802469 l
.384259259 .114197531 l
sn
.442129630 .114197531 m
.442129630 .885802469 l
.442129630 .885802469 l
.442129630 .114197531 l
.442129630 .114197531 l
sn
.442129630 .885802469 m
.557870370 .885802469 l
sn
.442129630 .114197531 m
.557870370 .114197531 l
sn
.442129630 .885802469 m
.557870370 .885802469 l
sn
.442129630 .114197531 m
.557870370 .114197531 l
sn
.557870370 .114197531 m
.557870370 .114197531 l
.557870370 .885802469 l
.557870370 .885802469 l
.557870370 .114197531 l
sn
.615740741 .114197531 m
.615740741 .885802469 l
.615740741 .885802469 l
.615740741 .114197531 l
.615740741 .114197531 l
sn
.615740741 .885802469 m
.731481481 .885802469 l
sn
.615740741 .114197531 m
.731481481 .114197531 l
sn
.615740741 .885802469 m
.731481481 .885802469 l
sn
.615740741 .114197531 m
.731481481 .114197531 l
sn
.731481481 .114197531 m
.731481481 .114197531 l
.731481481 .885802469 l
.731481481 .885802469 l
.731481481 .114197531 l
sn
.000000 .000000 .000000 c
.037037037 .500000000 m
.268518519 .500000000 l
.384259259 .500000000 l
.442129630 .500000000 l
.557870370 .500000000 l
.615740741 .500000000 l
.731481481 .500000000 l
.962962963 .500000000 l
sn
.000000 .000000 .000000 c
.037037037 .500000000 m
.268518519 .500000000 l
.384259259 .500000000 l
.442129630 .500000000 l
.557870370 .500000000 l
.615740741 .500000000 l
.731481481 .500000000 l
.962962963 .500000000 l
sn
.000000 .200000 1.000000 c
.037037037 .492283951 m
.268518519 .492283951 l
sn
% POLY# 1     end point (  0.30000000E+00, -0.48836715E-03,  0.00000000E+00 )
% curve, solid color, mesh 3 (automatic)
% eps_xyz, eps_color: 0.5%,  0.63662-310
sn
.268518519 .492283951 m
.306607304 .492879336 l
.346153506 .494352006 l
.384259259 .496231735 l
sn
.384259259 .496231735 m
.442129630 .499151271 l
sn
% POLY# 2     end point (  0.45000000E+00,  0.48208322E-03,  0.00000000E+00 )
% curve, solid color, mesh 3 (automatic)
% eps_xyz, eps_color: 0.5%,  0.63662-310
sn
.442129630 .499151271 m
.480237794 .500598917 l
.519786575 .501777453 l
.557870370 .503719778 l
sn
.557870370 .503719778 m
.615740741 .507767998 l
sn
% POLY# 3     end point (  0.60000000E+00,  0.15470651E-02,  0.00000000E+00 )
% curve, solid color, mesh 3 (automatic)
% eps_xyz, eps_color: 0.5%,  0.63662-310
sn
.615740741 .507767998 m
.653853825 .510178133 l
.693385660 .511732359 l
.731481481 .511937231 l
sn
.731481481 .511937231 m
.962962963 .508093129 l
sn
.000000 .200000 1.000000 c
.037037037 .507716049 m
.268518519 .507716049 l
sn
% POLY# 4     end point (  0.30000000E+00,  0.48836715E-03,  0.00000000E+00 )
% curve, solid color, mesh 3 (automatic)
% eps_xyz, eps_color: 0.5%,  0.63662-310
sn
.268518519 .507716049 m
.306607304 .507120664 l
.346153506 .505647994 l
.384259259 .503768265 l
sn
.384259259 .503768265 m
.442129630 .500848729 l
sn
% POLY# 5     end point (  0.45000000E+00, -0.48208322E-03,  0.00000000E+00 )
% curve, solid color, mesh 3 (automatic)
% eps_xyz, eps_color: 0.5%,  0.63662-310
sn
.442129630 .500848729 m
.480237794 .499401083 l
.519786575 .498222547 l
.557870370 .496280222 l
sn
.557870370 .496280222 m
.615740741 .492232002 l
sn
% POLY# 6     end point (  0.60000000E+00, -0.15470651E-02,  0.00000000E+00 )
% curve, solid color, mesh 3 (automatic)
% eps_xyz, eps_color: 0.5%,  0.63662-310
sn
.615740741 .492232002 m
.653853825 .489821867 l
.693385660 .488267641 l
.731481481 .488062769 l
sn
.731481481 .488062769 m
.962962963 .491906871 l
sn
.000000 .200000 1.000000 c
.037037037 .500000000 m
.268518519 .573683360 l
sn
% POLY# 7     end point (  0.30000000E+00,  0.94547525E-02,  0.00000000E+00 )
% curve, solid color, mesh 5 (automatic)
% eps_xyz, eps_color: 0.5%,  0.10610-309
sn
.268518519 .573683360 m
.291182142 .579545167 l
.314571910 .582383877 l
.338203940 .582218682 l
.361594351 .579068771 l
.384259259 .572953337 l
sn
.384259259 .572953337 m
.442129630 .554003134 l
sn
% POLY# 8     end point (  0.45000000E+00,  0.75214021E-02,  0.00000000E+00 )
% curve, solid color, mesh 5 (automatic)
% eps_xyz, eps_color: 0.5%,  0.10610-309
sn
.442129630 .554003134 m
.464843951 .547937731 l
.488234660 .545112163 l
.511842283 .545722533 l
.535207345 .549964947 l
.557870370 .558035510 l
sn
.557870370 .558035510 m
.615740741 .583127404 l
sn
% POLY# 9     end point (  0.60000000E+00,  0.11777039E-01,  0.00000000E+00 )
% curve, solid color, mesh 5 (automatic)
% eps_xyz, eps_color: 0.5%,  0.10610-309
sn
.615740741 .583127404 m
.638435238 .591616698 l
.661814329 .596822886 l
.685420245 .598558909 l
.708795219 .596637704 l
.731481481 .590872212 l
sn
.731481481 .590872212 m
.962962963 .513656885 l
sn
.000000 .200000 1.000000 c
.037037037 .500000000 m
.268518519 .426316640 l
sn
% POLY# 10     end point (  0.30000000E+00, -0.94547525E-02,  0.00000000E+00 )
% curve, solid color, mesh 5 (automatic)
% eps_xyz, eps_color: 0.5%,  0.10610-309
sn
.268518519 .426316640 m
.291182142 .420454833 l
.314571910 .417616123 l
.338203940 .417781318 l
.361594351 .420931229 l
.384259259 .427046663 l
sn
.384259259 .427046663 m
.442129630 .445996866 l
sn
% POLY# 11     end point (  0.45000000E+00, -0.75214021E-02,  0.00000000E+00 )
% curve, solid color, mesh 5 (automatic)
% eps_xyz, eps_color: 0.5%,  0.10610-309
sn
.442129630 .445996866 m
.464843951 .452062269 l
.488234660 .454887837 l
.511842283 .454277467 l
.535207345 .450035053 l
.557870370 .441964490 l
sn
.557870370 .441964490 m
.615740741 .416872596 l
sn
% POLY# 12     end point (  0.60000000E+00, -0.11777039E-01,  0.00000000E+00 )
% curve, solid color, mesh 5 (automatic)
% eps_xyz, eps_color: 0.5%,  0.10610-309
sn
.615740741 .416872596 m
.638435238 .408383302 l
.661814329 .403177114 l
.685420245 .401441091 l
.708795219 .403362296 l
.731481481 .409127788 l
sn
.731481481 .409127788 m
.962962963 .486343115 l
sn
.000000 .200000 1.000000 c
.037037037 .496141975 m
.268518519 .532947487 l
sn
% POLY# 13     end point (  0.30000000E+00,  0.44830395E-02,  0.00000000E+00 )
% curve, solid color, mesh 3 (automatic)
% eps_xyz, eps_color: 0.5%,  0.63662-310
sn
.268518519 .532947487 m
.306666070 .537262364 l
.346117032 .537873086 l
.384259259 .534591355 l
sn
.384259259 .534591355 m
.442129630 .526615091 l
sn
% POLY# 14     end point (  0.45000000E+00,  0.40192426E-02,  0.00000000E+00 )
% curve, solid color, mesh 4 (automatic)
% eps_xyz, eps_color: 0.5%,  0.84882-310
sn
.442129630 .526615091 m
.470563511 .523692112 l
.500037142 .523169204 l
.529492202 .525468634 l
.557870370 .531012675 l
sn
.557870370 .531012675 m
.615740741 .545696605 l
sn
% POLY# 15     end point (  0.60000000E+00,  0.67156603E-02,  0.00000000E+00 )
% curve, solid color, mesh 4 (automatic)
% eps_xyz, eps_color: 0.5%,  0.84882-310
sn
.615740741 .545696605 m
.644162912 .551721630 l
.673620729 .554947621 l
.703073737 .555078544 l
.731481481 .551818366 l
sn
.731481481 .551818366 m
.962962963 .511283622 l
sn
.000000 .200000 1.000000 c
.037037037 .503858025 m
.268518519 .540663536 l
sn
% POLY# 16     end point (  0.30000000E+00,  0.49712244E-02,  0.00000000E+00 )
% curve, solid color, mesh 4 (automatic)
% eps_xyz, eps_color: 0.5%,  0.84882-310
sn
.268518519 .540663536 m
.296911447 .543898875 l
.326384698 .544516770 l
.355860045 .542631718 l
.384259259 .538358213 l
sn
.384259259 .538358213 m
.442129630 .527457213 l
sn
% POLY# 17     end point (  0.45000000E+00,  0.35341925E-02,  0.00000000E+00 )
% curve, solid color, mesh 4 (automatic)
% eps_xyz, eps_color: 0.5%,  0.84882-310
sn
.442129630 .527457213 m
.470530224 .523380705 l
.499998466 .522002344 l
.529467476 .523304616 l
.557870370 .527270004 l
sn
.557870370 .527270004 m
.615740741 .537887955 l
sn
% POLY# 18     end point (  0.60000000E+00,  0.51643480E-02,  0.00000000E+00 )
% curve, solid color, mesh 4 (automatic)
% eps_xyz, eps_color: 0.5%,  0.84882-310
sn
.615740741 .537887955 m
.644138024 .542023624 l
.673614496 .543791899 l
.703089276 .543098304 l
.731481481 .539848364 l
sn
.731481481 .539848364 m
.962962963 .503221029 l
sn
.000000 .200000 1.000000 c
.037037037 .496141975 m
.268518519 .459336464 l
sn
% POLY# 19     end point (  0.30000000E+00, -0.49712244E-02,  0.00000000E+00 )
% curve, solid color, mesh 4 (automatic)
% eps_xyz, eps_color: 0.5%,  0.84882-310
sn
.268518519 .459336464 m
.296911447 .456101125 l
.326384698 .455483230 l
.355860045 .457368282 l
.384259259 .461641787 l
sn
.384259259 .461641787 m
.442129630 .472542787 l
sn
% POLY# 20     end point (  0.45000000E+00, -0.35341925E-02,  0.00000000E+00 )
% curve, solid color, mesh 4 (automatic)
% eps_xyz, eps_color: 0.5%,  0.84882-310
sn
.442129630 .472542787 m
.470530224 .476619295 l
.499998466 .477997656 l
.529467476 .476695384 l
.557870370 .472729996 l
sn
.557870370 .472729996 m
.615740741 .462112045 l
sn
% POLY# 21     end point (  0.60000000E+00, -0.51643480E-02,  0.00000000E+00 )
% curve, solid color, mesh 4 (automatic)
% eps_xyz, eps_color: 0.5%,  0.84882-310
sn
.615740741 .462112045 m
.644138024 .457976376 l
.673614496 .456208101 l
.703089276 .456901696 l
.731481481 .460151636 l
sn
.731481481 .460151636 m
.962962963 .496778971 l
sn
.000000 .200000 1.000000 c
.037037037 .503858025 m
.268518519 .467052513 l
sn
% POLY# 22     end point (  0.30000000E+00, -0.44830395E-02,  0.00000000E+00 )
% curve, solid color, mesh 3 (automatic)
% eps_xyz, eps_color: 0.5%,  0.63662-310
sn
.268518519 .467052513 m
.306666070 .462737636 l
.346117032 .462126914 l
.384259259 .465408645 l
sn
.384259259 .465408645 m
.442129630 .473384909 l
sn
% POLY# 23     end point (  0.45000000E+00, -0.40192426E-02,  0.00000000E+00 )
% curve, solid color, mesh 4 (automatic)
% eps_xyz, eps_color: 0.5%,  0.84882-310
sn
.442129630 .473384909 m
.470563511 .476307888 l
.500037142 .476830796 l
.529492202 .474531366 l
.557870370 .468987325 l
sn
.557870370 .468987325 m
.615740741 .454303395 l
sn
% POLY# 24     end point (  0.60000000E+00, -0.67156603E-02,  0.00000000E+00 )
% curve, solid color, mesh 4 (automatic)
% eps_xyz, eps_color: 0.5%,  0.84882-310
sn
.615740741 .454303395 m
.644162912 .448278370 l
.673620729 .445052379 l
.703073737 .444921456 l
.731481481 .448181634 l
sn
.731481481 .448181634 m
.962962963 .488716378 l
sn
1.000000 .000000 .000000 c
.037037037 .492283951 m
.268518519 .492283951 l
sn
% POLY# 25     end point (  0.30000000E+00, -0.43684601E-03,  0.00000000E+00 )
% curve, solid color, mesh 3 (automatic)
% eps_xyz, eps_color: 0.5%,  0.63662-310
sn
.268518519 .492283951 m
.306601892 .492997451 l
.346148753 .494676578 l
.384259259 .496629275 l
sn
.384259259 .496629275 m
.442129630 .499741408 l
sn
% POLY# 26     end point (  0.45000000E+00,  0.63779529E-03,  0.00000000E+00 )
% curve, solid color, mesh 3 (automatic)
% eps_xyz, eps_color: 0.5%,  0.63662-310
sn
.442129630 .499741408 m
.480245515 .501225604 l
.519794757 .502621530 l
.557870370 .504921260 l
sn
.557870370 .504921260 m
.615740741 .510090106 l
sn
% POLY# 27     end point (  0.60000000E+00,  0.19147900E-02,  0.00000000E+00 )
% curve, solid color, mesh 3 (automatic)
% eps_xyz, eps_color: 0.5%,  0.63662-310
sn
.615740741 .510090106 m
.653863798 .512919032 l
.693386657 .514727818 l
.731481481 .514774614 l
sn
.731481481 .514774614 m
.962962963 .507534420 l
sn
1.000000 .000000 .000000 c
.037037037 .507716049 m
.268518519 .507716049 l
sn
% POLY# 28     end point (  0.30000000E+00,  0.43684601E-03,  0.00000000E+00 )
% curve, solid color, mesh 3 (automatic)
% eps_xyz, eps_color: 0.5%,  0.63662-310
sn
.268518519 .507716049 m
.306601892 .507002549 l
.346148753 .505323422 l
.384259259 .503370725 l
sn
.384259259 .503370725 m
.442129630 .500258592 l
sn
% POLY# 29     end point (  0.45000000E+00, -0.63779529E-03,  0.00000000E+00 )
% curve, solid color, mesh 3 (automatic)
% eps_xyz, eps_color: 0.5%,  0.63662-310
sn
.442129630 .500258592 m
.480245515 .498774396 l
.519794757 .497378470 l
.557870370 .495078740 l
sn
.557870370 .495078740 m
.615740741 .489909894 l
sn
% POLY# 30     end point (  0.60000000E+00, -0.19147900E-02,  0.00000000E+00 )
% curve, solid color, mesh 3 (automatic)
% eps_xyz, eps_color: 0.5%,  0.63662-310
sn
.615740741 .489909894 m
.653863798 .487080968 l
.693386657 .485272182 l
.731481481 .485225386 l
sn
.731481481 .485225386 m
.962962963 .492465580 l
sn
1.000000 .000000 .000000 c
.037037037 .500000000 m
.268518519 .581409750 l
sn
% POLY# 31     end point (  0.30000000E+00,  0.98844378E-02,  0.00000000E+00 )
% curve, solid color, mesh 5 (automatic)
% eps_xyz, eps_color: 0.5%,  0.10610-309
sn
.268518519 .581409750 m
.291185770 .586997092 l
.314566737 .589105084 l
.338188153 .587905310 l
.361576749 .583569357 l
.384259259 .576268810 l
sn
.384259259 .576268810 m
.442129630 .552228570 l
sn
% POLY# 32     end point (  0.45000000E+00,  0.65366637E-02,  0.00000000E+00 )
% curve, solid color, mesh 5 (automatic)
% eps_xyz, eps_color: 0.5%,  0.10610-309
sn
.442129630 .552228570 m
.464797269 .545230695 l
.488175796 .541626326 l
.511794577 .541341761 l
.535182980 .544303293 l
.557870370 .550437220 l
sn
.557870370 .550437220 m
.615740741 .571623705 l
sn
% POLY# 33     end point (  0.60000000E+00,  0.95476236E-02,  0.00000000E+00 )
% curve, solid color, mesh 5 (automatic)
% eps_xyz, eps_color: 0.5%,  0.10610-309
sn
.615740741 .571623705 m
.638406648 .577895614 l
.661798922 .581302865 l
.685432317 .581778785 l
.708821585 .579256699 l
.731481481 .573669935 l
sn
.731481481 .573669935 m
.962962963 .494875616 l
sn
1.000000 .000000 .000000 c
.037037037 .500000000 m
.268518519 .418590250 l
sn
% POLY# 34     end point (  0.30000000E+00, -0.98844378E-02,  0.00000000E+00 )
% curve, solid color, mesh 5 (automatic)
% eps_xyz, eps_color: 0.5%,  0.10610-309
sn
.268518519 .418590250 m
.291185770 .413002908 l
.314566737 .410894916 l
.338188153 .412094690 l
.361576749 .416430643 l
.384259259 .423731190 l
sn
.384259259 .423731190 m
.442129630 .447771430 l
sn
% POLY# 35     end point (  0.45000000E+00, -0.65366637E-02,  0.00000000E+00 )
% curve, solid color, mesh 5 (automatic)
% eps_xyz, eps_color: 0.5%,  0.10610-309
sn
.442129630 .447771430 m
.464797269 .454769305 l
.488175796 .458373674 l
.511794577 .458658239 l
.535182980 .455696707 l
.557870370 .449562780 l
sn
.557870370 .449562780 m
.615740741 .428376295 l
sn
% POLY# 36     end point (  0.60000000E+00, -0.95476236E-02,  0.00000000E+00 )
% curve, solid color, mesh 5 (automatic)
% eps_xyz, eps_color: 0.5%,  0.10610-309
sn
.615740741 .428376295 m
.638406648 .422104386 l
.661798922 .418697135 l
.685432317 .418221215 l
.708821585 .420743301 l
.731481481 .426330065 l
sn
.731481481 .426330065 m
.962962963 .505124384 l
sn
1.000000 .000000 .000000 c
.037037037 .496141975 m
.268518519 .536810681 l
sn
% POLY# 37     end point (  0.30000000E+00,  0.47253429E-02,  0.00000000E+00 )
% curve, solid color, mesh 3 (automatic)
% eps_xyz, eps_color: 0.5%,  0.63662-310
sn
.268518519 .536810681 m
.306667058 .540823852 l
.346108720 .540688137 l
.384259259 .536460979 l
sn
.384259259 .536460979 m
.442129630 .526049810 l
sn
% POLY# 38     end point (  0.45000000E+00,  0.36171401E-02,  0.00000000E+00 )
% curve, solid color, mesh 4 (automatic)
% eps_xyz, eps_color: 0.5%,  0.84882-310
sn
.442129630 .526049810 m
.470541599 .522567369 l
.500013622 .521616067 l
.529478834 .523346692 l
.557870370 .527910031 l
sn
.557870370 .527910031 m
.615740741 .541289595 l
sn
% POLY# 39     end point (  0.60000000E+00,  0.58122439E-02,  0.00000000E+00 )
% curve, solid color, mesh 4 (automatic)
% eps_xyz, eps_color: 0.5%,  0.84882-310
sn
.615740741 .541289595 m
.644151685 .546155408 l
.673621273 .548525502 l
.703085781 .548167134 l
.731481481 .544847561 l
sn
.731481481 .544847561 m
.962962963 .501575267 l
sn
1.000000 .000000 .000000 c
.037037037 .503858025 m
.268518519 .544526731 l
sn
% POLY# 40     end point (  0.30000000E+00,  0.51618522E-02,  0.00000000E+00 )
% curve, solid color, mesh 4 (automatic)
% eps_xyz, eps_color: 0.5%,  0.84882-310
sn
.268518519 .544526731 m
.296909794 .547515154 l
.326375184 .547521314 l
.355847426 .544855776 l
.384259259 .539829106 l
sn
.384259259 .539829106 m
.442129630 .526298919 l
sn
% POLY# 41     end point (  0.45000000E+00,  0.29750028E-02,  0.00000000E+00 )
% curve, solid color, mesh 4 (automatic)
% eps_xyz, eps_color: 0.5%,  0.84882-310
sn
.442129630 .526298919 m
.470505636 .521657897 l
.499975861 .519735145 l
.529458155 .520258368 l
.557870370 .522955269 l
sn
.557870370 .522955269 m
.615740741 .531141617 l
sn
% POLY# 42     end point (  0.60000000E+00,  0.38902514E-02,  0.00000000E+00 )
% curve, solid color, mesh 3 (automatic)
% eps_xyz, eps_color: 0.5%,  0.63662-310
sn
.615740741 .531141617 m
.653877172 .534231166 l
.693338755 .533796836 l
.731481481 .530017372 l
sn
.731481481 .530017372 m
.962962963 .494070171 l
sn
1.000000 .000000 .000000 c
.037037037 .496141975 m
.268518519 .455473269 l
sn
% POLY# 43     end point (  0.30000000E+00, -0.51618522E-02,  0.00000000E+00 )
% curve, solid color, mesh 4 (automatic)
% eps_xyz, eps_color: 0.5%,  0.84882-310
sn
.268518519 .455473269 m
.296909794 .452484846 l
.326375184 .452478686 l
.355847426 .455144224 l
.384259259 .460170894 l
sn
.384259259 .460170894 m
.442129630 .473701081 l
sn
% POLY# 44     end point (  0.45000000E+00, -0.29750028E-02,  0.00000000E+00 )
% curve, solid color, mesh 4 (automatic)
% eps_xyz, eps_color: 0.5%,  0.84882-310
sn
.442129630 .473701081 m
.470505636 .478342103 l
.499975861 .480264855 l
.529458155 .479741632 l
.557870370 .477044731 l
sn
.557870370 .477044731 m
.615740741 .468858383 l
sn
% POLY# 45     end point (  0.60000000E+00, -0.38902514E-02,  0.00000000E+00 )
% curve, solid color, mesh 3 (automatic)
% eps_xyz, eps_color: 0.5%,  0.63662-310
sn
.615740741 .468858383 m
.653877172 .465768834 l
.693338755 .466203164 l
.731481481 .469982628 l
sn
.731481481 .469982628 m
.962962963 .505929829 l
sn
1.000000 .000000 .000000 c
.037037037 .503858025 m
.268518519 .463189319 l
sn
% POLY# 46     end point (  0.30000000E+00, -0.47253429E-02,  0.00000000E+00 )
% curve, solid color, mesh 3 (automatic)
% eps_xyz, eps_color: 0.5%,  0.63662-310
sn
.268518519 .463189319 m
.306667058 .459176148 l
.346108720 .459311863 l
.384259259 .463539021 l
sn
.384259259 .463539021 m
.442129630 .473950190 l
sn
% POLY# 47     end point (  0.45000000E+00, -0.36171401E-02,  0.00000000E+00 )
% curve, solid color, mesh 4 (automatic)
% eps_xyz, eps_color: 0.5%,  0.84882-310
sn
.442129630 .473950190 m
.470541599 .477432631 l
.500013622 .478383933 l
.529478834 .476653308 l
.557870370 .472089969 l
sn
.557870370 .472089969 m
.615740741 .458710405 l
sn
% POLY# 48     end point (  0.60000000E+00, -0.58122439E-02,  0.00000000E+00 )
% curve, solid color, mesh 4 (automatic)
% eps_xyz, eps_color: 0.5%,  0.84882-310
sn
.615740741 .458710405 m
.644151685 .453844592 l
.673621273 .451474498 l
.703085781 .451832866 l
.731481481 .455152439 l
sn
.731481481 .455152439 m
.962962963 .498424733 l
sn
.000000 .200000 1.000000 c
.037037037 .500000000 m
.268518519 .500000000 l
sn
% POLY# 49     end point (  0.30000000E+00,  0.00000000E+00, -0.15180056E-02 )
% curve, solid color, mesh 3 (automatic)
% eps_xyz, eps_color: 0.5%,  0.63662-310
sn
.268518519 .500000000 m
.306642567 .500000000 l
.346171829 .500000000 l
.384259259 .500000000 l
sn
.384259259 .500000000 m
.442129630 .500000000 l
sn
% POLY# 50     end point (  0.45000000E+00,  0.00000000E+00, -0.20952543E-02 )
% curve, solid color, mesh 3 (automatic)
% eps_xyz, eps_color: 0.5%,  0.63662-310
sn
.442129630 .500000000 m
.480253213 .500000000 l
.519741333 .500000000 l
.557870370 .500000000 l
sn
.557870370 .500000000 m
.615740741 .500000000 l
sn
% POLY# 51     end point (  0.60000000E+00,  0.00000000E+00, -0.52704530E-03 )
% curve, solid color, mesh 3 (automatic)
% eps_xyz, eps_color: 0.5%,  0.63662-310
sn
.615740741 .500000000 m
.653814239 .500000000 l
.693353875 .500000000 l
.731481481 .500000000 l
sn
.731481481 .500000000 m
.962962963 .500000000 l
sn
.000000 .200000 1.000000 c
.037037037 .500000000 m
.268518519 .500000000 l
sn
% POLY# 52     end point (  0.30000000E+00,  0.00000000E+00,  0.15180056E-02 )
% curve, solid color, mesh 3 (automatic)
% eps_xyz, eps_color: 0.5%,  0.63662-310
sn
.268518519 .500000000 m
.306642567 .500000000 l
.346171829 .500000000 l
.384259259 .500000000 l
sn
.384259259 .500000000 m
.442129630 .500000000 l
sn
% POLY# 53     end point (  0.45000000E+00,  0.00000000E+00,  0.20952543E-02 )
% curve, solid color, mesh 3 (automatic)
% eps_xyz, eps_color: 0.5%,  0.63662-310
sn
.442129630 .500000000 m
.480253213 .500000000 l
.519741333 .500000000 l
.557870370 .500000000 l
sn
.557870370 .500000000 m
.615740741 .500000000 l
sn
% POLY# 54     end point (  0.60000000E+00,  0.00000000E+00,  0.52704530E-03 )
% curve, solid color, mesh 3 (automatic)
% eps_xyz, eps_color: 0.5%,  0.63662-310
sn
.615740741 .500000000 m
.653814239 .500000000 l
.693353875 .500000000 l
.731481481 .500000000 l
sn
.731481481 .500000000 m
.962962963 .500000000 l
sn
.000000 .200000 1.000000 c
.037037037 .500000000 m
.268518519 .500000000 l
sn
% POLY# 55     end point (  0.30000000E+00,  0.00000000E+00,  0.19116050E-01 )
% curve, solid color, mesh 8 (automatic)
% eps_xyz, eps_color: 0.5%,  0.16976-309
sn
.268518519 .500000000 m
.282868860 .500000000 l
.297470621 .500000000 l
.312214843 .500000000 l
.326992566 .500000000 l
.341694829 .500000000 l
.356212672 .500000000 l
.370437136 .500000000 l
.384259259 .500000000 l
sn
.384259259 .500000000 m
.442129630 .500000000 l
sn
% POLY# 56     end point (  0.45000000E+00,  0.00000000E+00,  0.29340999E-01 )
% curve, solid color, mesh 9 (automatic)
% eps_xyz, eps_color: 0.5%,  0.19098-309
sn
.442129630 .500000000 m
.454845158 .500000000 l
.467669312 .500000000 l
.480571026 .500000000 l
.493519235 .500000000 l
.506482871 .500000000 l
.519430868 .500000000 l
.532332162 .500000000 l
.545155684 .500000000 l
.557870370 .500000000 l
sn
.557870370 .500000000 m
.615740741 .500000000 l
sn
% POLY# 57     end point (  0.60000000E+00,  0.00000000E+00,  0.85790807E-02 )
% curve, solid color, mesh 8 (automatic)
% eps_xyz, eps_color: 0.5%,  0.16976-309
sn
.615740741 .500000000 m
.629539510 .500000000 l
.643754870 .500000000 l
.658274071 .500000000 l
.672984365 .500000000 l
.687773001 .500000000 l
.702527232 .500000000 l
.717134309 .500000000 l
.731481481 .500000000 l
sn
.731481481 .500000000 m
.962962963 .500000000 l
sn
.000000 .200000 1.000000 c
.037037037 .500000000 m
.268518519 .500000000 l
sn
% POLY# 58     end point (  0.30000000E+00,  0.00000000E+00, -0.19116050E-01 )
% curve, solid color, mesh 8 (automatic)
% eps_xyz, eps_color: 0.5%,  0.16976-309
sn
.268518519 .500000000 m
.282868860 .500000000 l
.297470621 .500000000 l
.312214843 .500000000 l
.326992566 .500000000 l
.341694829 .500000000 l
.356212672 .500000000 l
.370437136 .500000000 l
.384259259 .500000000 l
sn
.384259259 .500000000 m
.442129630 .500000000 l
sn
% POLY# 59     end point (  0.45000000E+00,  0.00000000E+00, -0.29340999E-01 )
% curve, solid color, mesh 9 (automatic)
% eps_xyz, eps_color: 0.5%,  0.19098-309
sn
.442129630 .500000000 m
.454845158 .500000000 l
.467669312 .500000000 l
.480571026 .500000000 l
.493519235 .500000000 l
.506482871 .500000000 l
.519430868 .500000000 l
.532332162 .500000000 l
.545155684 .500000000 l
.557870370 .500000000 l
sn
.557870370 .500000000 m
.615740741 .500000000 l
sn
% POLY# 60     end point (  0.60000000E+00,  0.00000000E+00, -0.85790807E-02 )
% curve, solid color, mesh 8 (automatic)
% eps_xyz, eps_color: 0.5%,  0.16976-309
sn
.615740741 .500000000 m
.629539510 .500000000 l
.643754870 .500000000 l
.658274071 .500000000 l
.672984365 .500000000 l
.687773001 .500000000 l
.702527232 .500000000 l
.717134309 .500000000 l
.731481481 .500000000 l
sn
.731481481 .500000000 m
.962962963 .500000000 l
sn
.000000 .200000 1.000000 c
.037037037 .500000000 m
.268518519 .500000000 l
sn
% POLY# 61     end point (  0.30000000E+00,  0.00000000E+00,  0.87075785E-02 )
% curve, solid color, mesh 6 (automatic)
% eps_xyz, eps_color: 0.5%,  0.12732-309
sn
.268518519 .500000000 m
.287421233 .500000000 l
.306888748 .500000000 l
.326613685 .500000000 l
.346288668 .500000000 l
.365606318 .500000000 l
.384259259 .500000000 l
sn
.384259259 .500000000 m
.442129630 .500000000 l
sn
% POLY# 62     end point (  0.45000000E+00,  0.00000000E+00,  0.13766808E-01 )
% curve, solid color, mesh 6 (automatic)
% eps_xyz, eps_color: 0.5%,  0.12732-309
sn
.442129630 .500000000 m
.461071021 .500000000 l
.480431426 .500000000 l
.500001203 .500000000 l
.519570714 .500000000 l
.538930316 .500000000 l
.557870370 .500000000 l
sn
.557870370 .500000000 m
.615740741 .500000000 l
sn
% POLY# 63     end point (  0.60000000E+00,  0.00000000E+00,  0.51416583E-02 )
% curve, solid color, mesh 6 (automatic)
% eps_xyz, eps_color: 0.5%,  0.12732-309
sn
.615740741 .500000000 m
.634416737 .500000000 l
.653738218 .500000000 l
.673405309 .500000000 l
.693118134 .500000000 l
.712576817 .500000000 l
.731481481 .500000000 l
sn
.731481481 .500000000 m
.962962963 .500000000 l
sn
.000000 .200000 1.000000 c
.037037037 .500000000 m
.268518519 .500000000 l
sn
% POLY# 64     end point (  0.30000000E+00,  0.00000000E+00,  0.10234914E-01 )
% curve, solid color, mesh 6 (automatic)
% eps_xyz, eps_color: 0.5%,  0.12732-309
sn
.268518519 .500000000 m
.287460699 .500000000 l
.306937600 .500000000 l
.326652564 .500000000 l
.346308934 .500000000 l
.365610051 .500000000 l
.384259259 .500000000 l
sn
.384259259 .500000000 m
.442129630 .500000000 l
sn
% POLY# 65     end point (  0.45000000E+00,  0.00000000E+00,  0.15841697E-01 )
% curve, solid color, mesh 7 (automatic)
% eps_xyz, eps_color: 0.5%,  0.14854-309
sn
.442129630 .500000000 m
.458364554 .500000000 l
.474898828 .500000000 l
.491612735 .500000000 l
.508386558 .500000000 l
.525100583 .500000000 l
.541635092 .500000000 l
.557870370 .500000000 l
sn
.557870370 .500000000 m
.615740741 .500000000 l
sn
% POLY# 66     end point (  0.60000000E+00,  0.00000000E+00,  0.55264597E-02 )
% curve, solid color, mesh 6 (automatic)
% eps_xyz, eps_color: 0.5%,  0.12732-309
sn
.615740741 .500000000 m
.634396705 .500000000 l
.653698868 .500000000 l
.673352828 .500000000 l
.693064184 .500000000 l
.712538536 .500000000 l
.731481481 .500000000 l
sn
.731481481 .500000000 m
.962962963 .500000000 l
sn
.000000 .200000 1.000000 c
.037037037 .500000000 m
.268518519 .500000000 l
sn
% POLY# 67     end point (  0.30000000E+00,  0.00000000E+00, -0.10234914E-01 )
% curve, solid color, mesh 6 (automatic)
% eps_xyz, eps_color: 0.5%,  0.12732-309
sn
.268518519 .500000000 m
.287460699 .500000000 l
.306937600 .500000000 l
.326652564 .500000000 l
.346308934 .500000000 l
.365610051 .500000000 l
.384259259 .500000000 l
sn
.384259259 .500000000 m
.442129630 .500000000 l
sn
% POLY# 68     end point (  0.45000000E+00,  0.00000000E+00, -0.15841697E-01 )
% curve, solid color, mesh 7 (automatic)
% eps_xyz, eps_color: 0.5%,  0.14854-309
sn
.442129630 .500000000 m
.458364554 .500000000 l
.474898828 .500000000 l
.491612735 .500000000 l
.508386558 .500000000 l
.525100583 .500000000 l
.541635092 .500000000 l
.557870370 .500000000 l
sn
.557870370 .500000000 m
.615740741 .500000000 l
sn
% POLY# 69     end point (  0.60000000E+00,  0.00000000E+00, -0.55264597E-02 )
% curve, solid color, mesh 6 (automatic)
% eps_xyz, eps_color: 0.5%,  0.12732-309
sn
.615740741 .500000000 m
.634396705 .500000000 l
.653698868 .500000000 l
.673352828 .500000000 l
.693064184 .500000000 l
.712538536 .500000000 l
.731481481 .500000000 l
sn
.731481481 .500000000 m
.962962963 .500000000 l
sn
.000000 .200000 1.000000 c
.037037037 .500000000 m
.268518519 .500000000 l
sn
% POLY# 70     end point (  0.30000000E+00,  0.00000000E+00, -0.87075785E-02 )
% curve, solid color, mesh 6 (automatic)
% eps_xyz, eps_color: 0.5%,  0.12732-309
sn
.268518519 .500000000 m
.287421233 .500000000 l
.306888748 .500000000 l
.326613685 .500000000 l
.346288668 .500000000 l
.365606318 .500000000 l
.384259259 .500000000 l
sn
.384259259 .500000000 m
.442129630 .500000000 l
sn
% POLY# 71     end point (  0.45000000E+00,  0.00000000E+00, -0.13766808E-01 )
% curve, solid color, mesh 6 (automatic)
% eps_xyz, eps_color: 0.5%,  0.12732-309
sn
.442129630 .500000000 m
.461071021 .500000000 l
.480431426 .500000000 l
.500001203 .500000000 l
.519570714 .500000000 l
.538930316 .500000000 l
.557870370 .500000000 l
sn
.557870370 .500000000 m
.615740741 .500000000 l
sn
% POLY# 72     end point (  0.60000000E+00,  0.00000000E+00, -0.51416583E-02 )
% curve, solid color, mesh 6 (automatic)
% eps_xyz, eps_color: 0.5%,  0.12732-309
sn
.615740741 .500000000 m
.634416737 .500000000 l
.653738218 .500000000 l
.673405309 .500000000 l
.693118134 .500000000 l
.712576817 .500000000 l
.731481481 .500000000 l
sn
.731481481 .500000000 m
.962962963 .500000000 l
sn
1.000000 .000000 .000000 c
.037037037 .500000000 m
.268518519 .500000000 l
sn
% POLY# 73     end point (  0.30000000E+00,  0.00000000E+00, -0.15704731E-02 )
% curve, solid color, mesh 3 (automatic)
% eps_xyz, eps_color: 0.5%,  0.63662-310
sn
.268518519 .500000000 m
.306640901 .500000000 l
.346169019 .500000000 l
.384259259 .500000000 l
sn
.384259259 .500000000 m
.442129630 .500000000 l
sn
% POLY# 74     end point (  0.45000000E+00,  0.00000000E+00, -0.21649587E-02 )
% curve, solid color, mesh 3 (automatic)
% eps_xyz, eps_color: 0.5%,  0.63662-310
sn
.442129630 .500000000 m
.480252005 .500000000 l
.519736133 .500000000 l
.557870370 .500000000 l
sn
.557870370 .500000000 m
.615740741 .500000000 l
sn
% POLY# 75     end point (  0.60000000E+00,  0.00000000E+00, -0.23106338E-03 )
% curve, solid color, mesh 3 (automatic)
% eps_xyz, eps_color: 0.5%,  0.63662-310
sn
.615740741 .500000000 m
.653811393 .500000000 l
.693356468 .500000000 l
.731481481 .500000000 l
sn
.731481481 .500000000 m
.962962963 .500000000 l
sn
1.000000 .000000 .000000 c
.037037037 .500000000 m
.268518519 .500000000 l
sn
% POLY# 76     end point (  0.30000000E+00,  0.00000000E+00,  0.15704731E-02 )
% curve, solid color, mesh 3 (automatic)
% eps_xyz, eps_color: 0.5%,  0.63662-310
sn
.268518519 .500000000 m
.306640901 .500000000 l
.346169019 .500000000 l
.384259259 .500000000 l
sn
.384259259 .500000000 m
.442129630 .500000000 l
sn
% POLY# 77     end point (  0.45000000E+00,  0.00000000E+00,  0.21649587E-02 )
% curve, solid color, mesh 3 (automatic)
% eps_xyz, eps_color: 0.5%,  0.63662-310
sn
.442129630 .500000000 m
.480252005 .500000000 l
.519736133 .500000000 l
.557870370 .500000000 l
sn
.557870370 .500000000 m
.615740741 .500000000 l
sn
% POLY# 78     end point (  0.60000000E+00,  0.00000000E+00,  0.23106338E-03 )
% curve, solid color, mesh 3 (automatic)
% eps_xyz, eps_color: 0.5%,  0.63662-310
sn
.615740741 .500000000 m
.653811393 .500000000 l
.693356468 .500000000 l
.731481481 .500000000 l
sn
.731481481 .500000000 m
.962962963 .500000000 l
sn
1.000000 .000000 .000000 c
.037037037 .500000000 m
.268518519 .500000000 l
sn
% POLY# 79     end point (  0.30000000E+00,  0.00000000E+00,  0.21727960E-01 )
% curve, solid color, mesh 8 (automatic)
% eps_xyz, eps_color: 0.5%,  0.16976-309
sn
.268518519 .500000000 m
.282898278 .500000000 l
.297507847 .500000000 l
.312244869 .500000000 l
.327006985 .500000000 l
.341691840 .500000000 l
.356197075 .500000000 l
.370420334 .500000000 l
.384259259 .500000000 l
sn
.384259259 .500000000 m
.442129630 .500000000 l
sn
% POLY# 80     end point (  0.45000000E+00,  0.00000000E+00,  0.32412114E-01 )
% curve, solid color, mesh 10 (automatic)
% eps_xyz, eps_color: 0.5%,  0.21220-309
sn
.442129630 .500000000 m
.453585710 .500000000 l
.465120857 .500000000 l
.476715253 .500000000 l
.488349081 .500000000 l
.500002525 .500000000 l
.511655766 .500000000 l
.523288989 .500000000 l
.534882375 .500000000 l
.546416108 .500000000 l
.557870370 .500000000 l
sn
.557870370 .500000000 m
.615740741 .500000000 l
sn
% POLY# 81     end point (  0.60000000E+00,  0.00000000E+00,  0.25320696E-02 )
% curve, solid color, mesh 8 (automatic)
% eps_xyz, eps_color: 0.5%,  0.16976-309
sn
.615740741 .500000000 m
.629437043 .500000000 l
.643622222 .500000000 l
.658162022 .500000000 l
.672922192 .500000000 l
.687768477 .500000000 l
.702566622 .500000000 l
.717182375 .500000000 l
.731481481 .500000000 l
sn
.731481481 .500000000 m
.962962963 .500000000 l
sn
1.000000 .000000 .000000 c
.037037037 .500000000 m
.268518519 .500000000 l
sn
% POLY# 82     end point (  0.30000000E+00,  0.00000000E+00, -0.21727960E-01 )
% curve, solid color, mesh 8 (automatic)
% eps_xyz, eps_color: 0.5%,  0.16976-309
sn
.268518519 .500000000 m
.282898278 .500000000 l
.297507847 .500000000 l
.312244869 .500000000 l
.327006985 .500000000 l
.341691840 .500000000 l
.356197075 .500000000 l
.370420334 .500000000 l
.384259259 .500000000 l
sn
.384259259 .500000000 m
.442129630 .500000000 l
sn
% POLY# 83     end point (  0.45000000E+00,  0.00000000E+00, -0.32412114E-01 )
% curve, solid color, mesh 10 (automatic)
% eps_xyz, eps_color: 0.5%,  0.21220-309
sn
.442129630 .500000000 m
.453585710 .500000000 l
.465120857 .500000000 l
.476715253 .500000000 l
.488349081 .500000000 l
.500002525 .500000000 l
.511655766 .500000000 l
.523288989 .500000000 l
.534882375 .500000000 l
.546416108 .500000000 l
.557870370 .500000000 l
sn
.557870370 .500000000 m
.615740741 .500000000 l
sn
% POLY# 84     end point (  0.60000000E+00,  0.00000000E+00, -0.25320696E-02 )
% curve, solid color, mesh 8 (automatic)
% eps_xyz, eps_color: 0.5%,  0.16976-309
sn
.615740741 .500000000 m
.629437043 .500000000 l
.643622222 .500000000 l
.658162022 .500000000 l
.672922192 .500000000 l
.687768477 .500000000 l
.702566622 .500000000 l
.717182375 .500000000 l
.731481481 .500000000 l
sn
.731481481 .500000000 m
.962962963 .500000000 l
sn
1.000000 .000000 .000000 c
.037037037 .500000000 m
.268518519 .500000000 l
sn
% POLY# 85     end point (  0.30000000E+00,  0.00000000E+00,  0.99302252E-02 )
% curve, solid color, mesh 6 (automatic)
% eps_xyz, eps_color: 0.5%,  0.12732-309
sn
.268518519 .500000000 m
.287435718 .500000000 l
.306900035 .500000000 l
.326613008 .500000000 l
.346276177 .500000000 l
.365591081 .500000000 l
.384259259 .500000000 l
sn
.384259259 .500000000 m
.442129630 .500000000 l
sn
% POLY# 86     end point (  0.45000000E+00,  0.00000000E+00,  0.15436903E-01 )
% curve, solid color, mesh 7 (automatic)
% eps_xyz, eps_color: 0.5%,  0.14854-309
sn
.442129630 .500000000 m
.458359369 .500000000 l
.474891433 .500000000 l
.491605357 .500000000 l
.508380676 .500000000 l
.525096928 .500000000 l
.541633647 .500000000 l
.557870370 .500000000 l
sn
.557870370 .500000000 m
.615740741 .500000000 l
sn
% POLY# 87     end point (  0.60000000E+00,  0.00000000E+00,  0.32537950E-02 )
% curve, solid color, mesh 6 (automatic)
% eps_xyz, eps_color: 0.5%,  0.12732-309
sn
.615740741 .500000000 m
.634374220 .500000000 l
.653685824 .500000000 l
.673363954 .500000000 l
.693097007 .500000000 l
.712573384 .500000000 l
.731481481 .500000000 l
sn
.731481481 .500000000 m
.962962963 .500000000 l
sn
1.000000 .000000 .000000 c
.037037037 .500000000 m
.268518519 .500000000 l
sn
% POLY# 88     end point (  0.30000000E+00,  0.00000000E+00,  0.11515632E-01 )
% curve, solid color, mesh 6 (automatic)
% eps_xyz, eps_color: 0.5%,  0.12732-309
sn
.268518519 .500000000 m
.287475186 .500000000 l
.306948668 .500000000 l
.326651390 .500000000 l
.346295779 .500000000 l
.365594260 .500000000 l
.384259259 .500000000 l
sn
.384259259 .500000000 m
.442129630 .500000000 l
sn
% POLY# 89     end point (  0.45000000E+00,  0.00000000E+00,  0.17562938E-01 )
% curve, solid color, mesh 7 (automatic)
% eps_xyz, eps_color: 0.5%,  0.14854-309
sn
.442129630 .500000000 m
.458387910 .500000000 l
.474919084 .500000000 l
.491614638 .500000000 l
.508366058 .500000000 l
.525064830 .500000000 l
.541602439 .500000000 l
.557870370 .500000000 l
sn
.557870370 .500000000 m
.615740741 .500000000 l
sn
% POLY# 90     end point (  0.60000000E+00,  0.00000000E+00,  0.32391992E-02 )
% curve, solid color, mesh 6 (automatic)
% eps_xyz, eps_color: 0.5%,  0.12732-309
sn
.615740741 .500000000 m
.634348014 .500000000 l
.653641318 .500000000 l
.673310985 .500000000 l
.693047347 .500000000 l
.712540735 .500000000 l
.731481481 .500000000 l
sn
.731481481 .500000000 m
.962962963 .500000000 l
sn
1.000000 .000000 .000000 c
.037037037 .500000000 m
.268518519 .500000000 l
sn
% POLY# 91     end point (  0.30000000E+00,  0.00000000E+00, -0.11515632E-01 )
% curve, solid color, mesh 6 (automatic)
% eps_xyz, eps_color: 0.5%,  0.12732-309
sn
.268518519 .500000000 m
.287475186 .500000000 l
.306948668 .500000000 l
.326651390 .500000000 l
.346295779 .500000000 l
.365594260 .500000000 l
.384259259 .500000000 l
sn
.384259259 .500000000 m
.442129630 .500000000 l
sn
% POLY# 92     end point (  0.45000000E+00,  0.00000000E+00, -0.17562938E-01 )
% curve, solid color, mesh 7 (automatic)
% eps_xyz, eps_color: 0.5%,  0.14854-309
sn
.442129630 .500000000 m
.458387910 .500000000 l
.474919084 .500000000 l
.491614638 .500000000 l
.508366058 .500000000 l
.525064830 .500000000 l
.541602439 .500000000 l
.557870370 .500000000 l
sn
.557870370 .500000000 m
.615740741 .500000000 l
sn
% POLY# 93     end point (  0.60000000E+00,  0.00000000E+00, -0.32391992E-02 )
% curve, solid color, mesh 6 (automatic)
% eps_xyz, eps_color: 0.5%,  0.12732-309
sn
.615740741 .500000000 m
.634348014 .500000000 l
.653641318 .500000000 l
.673310985 .500000000 l
.693047347 .500000000 l
.712540735 .500000000 l
.731481481 .500000000 l
sn
.731481481 .500000000 m
.962962963 .500000000 l
sn
1.000000 .000000 .000000 c
.037037037 .500000000 m
.268518519 .500000000 l
sn
% POLY# 94     end point (  0.30000000E+00,  0.00000000E+00, -0.99302252E-02 )
% curve, solid color, mesh 6 (automatic)
% eps_xyz, eps_color: 0.5%,  0.12732-309
sn
.268518519 .500000000 m
.287435718 .500000000 l
.306900035 .500000000 l
.326613008 .500000000 l
.346276177 .500000000 l
.365591081 .500000000 l
.384259259 .500000000 l
sn
.384259259 .500000000 m
.442129630 .500000000 l
sn
% POLY# 95     end point (  0.45000000E+00,  0.00000000E+00, -0.15436903E-01 )
% curve, solid color, mesh 7 (automatic)
% eps_xyz, eps_color: 0.5%,  0.14854-309
sn
.442129630 .500000000 m
.458359369 .500000000 l
.474891433 .500000000 l
.491605357 .500000000 l
.508380676 .500000000 l
.525096928 .500000000 l
.541633647 .500000000 l
.557870370 .500000000 l
sn
.557870370 .500000000 m
.615740741 .500000000 l
sn
% POLY# 96     end point (  0.60000000E+00,  0.00000000E+00, -0.32537950E-02 )
% curve, solid color, mesh 6 (automatic)
% eps_xyz, eps_color: 0.5%,  0.12732-309
sn
.615740741 .500000000 m
.634374220 .500000000 l
.653685824 .500000000 l
.673363954 .500000000 l
.693097007 .500000000 l
.712573384 .500000000 l
.731481481 .500000000 l
sn
.731481481 .500000000 m
.962962963 .500000000 l
sn
.000000 .000000 .000000 c
.037037037 .492283951 m
.268518519 .492283951 l
sn
% POLY# 97     end point (  0.30000000E+00, -0.46446649E-03,  0.00000000E+00 )
% curve, solid color, mesh 3 (automatic)
% eps_xyz, eps_color: 0.5%,  0.63662-310
sn
.268518519 .492283951 m
.306604790 .492934153 l
.346151300 .494502623 l
.384259259 .496416154 l
sn
.384259259 .496416154 m
.442129630 .499427134 l
sn
% POLY# 98     end point (  0.45000000E+00,  0.55434772E-03,  0.00000000E+00 )
% curve, solid color, mesh 3 (automatic)
% eps_xyz, eps_color: 0.5%,  0.63662-310
sn
.442129630 .499427134 m
.480241350 .500891500 l
.519790346 .502170303 l
.557870370 .504277374 l
sn
.557870370 .504277374 m
.615740741 .508826196 l
sn
% POLY# 99     end point (  0.60000000E+00,  0.17156885E-02,  0.00000000E+00 )
% curve, solid color, mesh 3 (automatic)
% eps_xyz, eps_color: 0.5%,  0.63662-310
sn
.615740741 .508826196 m
.653858415 .511429974 l
.693386140 .513103499 l
.731481481 .513238337 l
sn
.731481481 .513238337 m
.962962963 .507918129 l
sn
.000000 .000000 .000000 c
.037037037 .507716049 m
.268518519 .507716049 l
sn
% POLY# 100     end point (  0.30000000E+00,  0.46446649E-03,  0.00000000E+00 )
% curve, solid color, mesh 3 (automatic)
% eps_xyz, eps_color: 0.5%,  0.63662-310
sn
.268518519 .507716049 m
.306604790 .507065847 l
.346151300 .505497377 l
.384259259 .503583846 l
sn
.384259259 .503583846 m
.442129630 .500572866 l
sn
% POLY# 101     end point (  0.45000000E+00, -0.55434772E-03,  0.00000000E+00 )
% curve, solid color, mesh 3 (automatic)
% eps_xyz, eps_color: 0.5%,  0.63662-310
sn
.442129630 .500572866 m
.480241350 .499108500 l
.519790346 .497829697 l
.557870370 .495722626 l
sn
.557870370 .495722626 m
.615740741 .491173804 l
sn
% POLY# 102     end point (  0.60000000E+00, -0.17156885E-02,  0.00000000E+00 )
% curve, solid color, mesh 3 (automatic)
% eps_xyz, eps_color: 0.5%,  0.63662-310
sn
.615740741 .491173804 m
.653858415 .488570026 l
.693386140 .486896501 l
.731481481 .486761663 l
sn
.731481481 .486761663 m
.962962963 .492081871 l
sn
.000000 .000000 .000000 c
.037037037 .500000000 m
.268518519 .577256944 l
sn
% POLY# 103     end point (  0.30000000E+00,  0.96665831E-02,  0.00000000E+00 )
% curve, solid color, mesh 5 (automatic)
% eps_xyz, eps_color: 0.5%,  0.10610-309
sn
.268518519 .577256944 m
.291184773 .583003983 l
.314570867 .585532615 l
.338197908 .584920816 l
.361587003 .581246563 l
.384259259 .574587833 l
sn
.384259259 .574587833 m
.442129630 .553331964 l
sn
% POLY# 104     end point (  0.45000000E+00,  0.71093357E-02,  0.00000000E+00 )
% curve, solid color, mesh 5 (automatic)
% eps_xyz, eps_color: 0.5%,  0.10610-309
sn
.442129630 .553331964 m
.464823066 .546835957 l
.488207625 .543672072 l
.511819539 .543908594 l
.535195044 .547613804 l
.557870370 .554855986 l
sn
.557870370 .554855986 m
.615740741 .578479297 l
sn
% POLY# 105     end point (  0.60000000E+00,  0.10854248E-01,  0.00000000E+00 )
% curve, solid color, mesh 5 (automatic)
% eps_xyz, eps_color: 0.5%,  0.10610-309
sn
.615740741 .578479297 m
.638425193 .586018997 l
.661810425 .590465716 l
.685427505 .591669848 l
.708807501 .589481783 l
.731481481 .583751916 l
sn
.731481481 .583751916 m
.962962963 .504792227 l
sn
.000000 .000000 .000000 c
.037037037 .500000000 m
.268518519 .422743056 l
sn
% POLY# 106     end point (  0.30000000E+00, -0.96665831E-02,  0.00000000E+00 )
% curve, solid color, mesh 5 (automatic)
% eps_xyz, eps_color: 0.5%,  0.10610-309
sn
.268518519 .422743056 m
.291184773 .416996017 l
.314570867 .414467385 l
.338197908 .415079184 l
.361587003 .418753437 l
.384259259 .425412167 l
sn
.384259259 .425412167 m
.442129630 .446668036 l
sn
% POLY# 107     end point (  0.45000000E+00, -0.71093357E-02,  0.00000000E+00 )
% curve, solid color, mesh 5 (automatic)
% eps_xyz, eps_color: 0.5%,  0.10610-309
sn
.442129630 .446668036 m
.464823066 .453164043 l
.488207625 .456327928 l
.511819539 .456091406 l
.535195044 .452386196 l
.557870370 .445144014 l
sn
.557870370 .445144014 m
.615740741 .421520703 l
sn
% POLY# 108     end point (  0.60000000E+00, -0.10854248E-01,  0.00000000E+00 )
% curve, solid color, mesh 5 (automatic)
% eps_xyz, eps_color: 0.5%,  0.10610-309
sn
.615740741 .421520703 m
.638425193 .413981003 l
.661810425 .409534284 l
.685427505 .408330152 l
.708807501 .410518217 l
.731481481 .416248084 l
sn
.731481481 .416248084 m
.962962963 .495207773 l
sn
.000000 .000000 .000000 c
.037037037 .496141975 m
.268518519 .534734279 l
sn
% POLY# 109     end point (  0.30000000E+00,  0.46016438E-02,  0.00000000E+00 )
% curve, solid color, mesh 3 (automatic)
% eps_xyz, eps_color: 0.5%,  0.63662-310
sn
.268518519 .534734279 m
.306667184 .538924482 l
.346113764 .539215917 l
.384259259 .535506511 l
sn
.384259259 .535506511 m
.442129630 .526429163 l
sn
% POLY# 110     end point (  0.45000000E+00,  0.38545170E-02,  0.00000000E+00 )
% curve, solid color, mesh 4 (automatic)
% eps_xyz, eps_color: 0.5%,  0.84882-310
sn
.442129630 .526429163 m
.470553729 .523249604 l
.500026181 .522545971 l
.529485543 .524612055 l
.557870370 .529741644 l
sn
.557870370 .529741644 m
.615740741 .543978611 l
sn
% POLY# 111     end point (  0.60000000E+00,  0.63501358E-02,  0.00000000E+00 )
% curve, solid color, mesh 4 (automatic)
% eps_xyz, eps_color: 0.5%,  0.84882-310
sn
.615740741 .543978611 m
.644159327 .549513777 l
.673622123 .552385072 l
.703079414 .552307975 l
.731481481 .548997962 l
sn
.731481481 .548997962 m
.962962963 .506752920 l
sn
.000000 .000000 .000000 c
.037037037 .503858025 m
.268518519 .542450328 l
sn
% POLY# 112     end point (  0.30000000E+00,  0.50658612E-02,  0.00000000E+00 )
% curve, solid color, mesh 4 (automatic)
% eps_xyz, eps_color: 0.5%,  0.84882-310
sn
.268518519 .542450328 m
.296911241 .545580386 l
.326380988 .545934238 l
.355854686 .543705662 l
.384259259 .539088435 l
sn
.384259259 .539088435 m
.442129630 .526994144 l
sn
% POLY# 113     end point (  0.45000000E+00,  0.32965932E-02,  0.00000000E+00 )
% curve, solid color, mesh 4 (automatic)
% eps_xyz, eps_color: 0.5%,  0.84882-310
sn
.442129630 .526994144 m
.470519162 .522658839 l
.499987847 .521046312 l
.529462608 .522018335 l
.557870370 .525436676 l
sn
.557870370 .525436676 m
.615740741 .535104389 l
sn
% POLY# 114     end point (  0.60000000E+00,  0.46290175E-02,  0.00000000E+00 )
% curve, solid color, mesh 3 (automatic)
% eps_xyz, eps_color: 0.5%,  0.63662-310
sn
.615740741 .535104389 m
.653889537 .539278179 l
.693335165 .539509430 l
.731481481 .535717728 l
sn
.731481481 .535717728 m
.962962963 .498866218 l
sn
.000000 .000000 .000000 c
.037037037 .496141975 m
.268518519 .457549672 l
sn
% POLY# 115     end point (  0.30000000E+00, -0.50658612E-02,  0.00000000E+00 )
% curve, solid color, mesh 4 (automatic)
% eps_xyz, eps_color: 0.5%,  0.84882-310
sn
.268518519 .457549672 m
.296911241 .454419614 l
.326380988 .454065762 l
.355854686 .456294338 l
.384259259 .460911565 l
sn
.384259259 .460911565 m
.442129630 .473005856 l
sn
% POLY# 116     end point (  0.45000000E+00, -0.32965932E-02,  0.00000000E+00 )
% curve, solid color, mesh 4 (automatic)
% eps_xyz, eps_color: 0.5%,  0.84882-310
sn
.442129630 .473005856 m
.470519162 .477341161 l
.499987847 .478953688 l
.529462608 .477981665 l
.557870370 .474563324 l
sn
.557870370 .474563324 m
.615740741 .464895611 l
sn
% POLY# 117     end point (  0.60000000E+00, -0.46290175E-02,  0.00000000E+00 )
% curve, solid color, mesh 3 (automatic)
% eps_xyz, eps_color: 0.5%,  0.63662-310
sn
.615740741 .464895611 m
.653889537 .460721821 l
.693335165 .460490570 l
.731481481 .464282272 l
sn
.731481481 .464282272 m
.962962963 .501133782 l
sn
.000000 .000000 .000000 c
.037037037 .503858025 m
.268518519 .465265721 l
sn
% POLY# 118     end point (  0.30000000E+00, -0.46016438E-02,  0.00000000E+00 )
% curve, solid color, mesh 3 (automatic)
% eps_xyz, eps_color: 0.5%,  0.63662-310
sn
.268518519 .465265721 m
.306667184 .461075518 l
.346113764 .460784083 l
.384259259 .464493489 l
sn
.384259259 .464493489 m
.442129630 .473570837 l
sn
% POLY# 119     end point (  0.45000000E+00, -0.38545170E-02,  0.00000000E+00 )
% curve, solid color, mesh 4 (automatic)
% eps_xyz, eps_color: 0.5%,  0.84882-310
sn
.442129630 .473570837 m
.470553729 .476750396 l
.500026181 .477454029 l
.529485543 .475387945 l
.557870370 .470258356 l
sn
.557870370 .470258356 m
.615740741 .456021389 l
sn
% POLY# 120     end point (  0.60000000E+00, -0.63501358E-02,  0.00000000E+00 )
% curve, solid color, mesh 4 (automatic)
% eps_xyz, eps_color: 0.5%,  0.84882-310
sn
.615740741 .456021389 m
.644159327 .450486223 l
.673622123 .447614928 l
.703079414 .447692025 l
.731481481 .451002038 l
sn
.731481481 .451002038 m
.962962963 .493247080 l
sn
.000000 .000000 .000000 c
.037037037 .500000000 m
.268518519 .500000000 l
sn
% POLY# 121     end point (  0.30000000E+00,  0.00000000E+00, -0.15423509E-02 )
% curve, solid color, mesh 3 (automatic)
% eps_xyz, eps_color: 0.5%,  0.63662-310
sn
.268518519 .500000000 m
.306641784 .500000000 l
.346170520 .500000000 l
.384259259 .500000000 l
sn
.384259259 .500000000 m
.442129630 .500000000 l
sn
% POLY# 122     end point (  0.45000000E+00,  0.00000000E+00, -0.21288668E-02 )
% curve, solid color, mesh 3 (automatic)
% eps_xyz, eps_color: 0.5%,  0.63662-310
sn
.442129630 .500000000 m
.480252822 .500000000 l
.519739090 .500000000 l
.557870370 .500000000 l
sn
.557870370 .500000000 m
.615740741 .500000000 l
sn
% POLY# 123     end point (  0.60000000E+00,  0.00000000E+00, -0.39676287E-03 )
% curve, solid color, mesh 3 (automatic)
% eps_xyz, eps_color: 0.5%,  0.63662-310
sn
.615740741 .500000000 m
.653812877 .500000000 l
.693354877 .500000000 l
.731481481 .500000000 l
sn
.731481481 .500000000 m
.962962963 .500000000 l
sn
.000000 .000000 .000000 c
.037037037 .500000000 m
.268518519 .500000000 l
sn
% POLY# 124     end point (  0.30000000E+00,  0.00000000E+00,  0.15423509E-02 )
% curve, solid color, mesh 3 (automatic)
% eps_xyz, eps_color: 0.5%,  0.63662-310
sn
.268518519 .500000000 m
.306641784 .500000000 l
.346170520 .500000000 l
.384259259 .500000000 l
sn
.384259259 .500000000 m
.442129630 .500000000 l
sn
% POLY# 125     end point (  0.45000000E+00,  0.00000000E+00,  0.21288668E-02 )
% curve, solid color, mesh 3 (automatic)
% eps_xyz, eps_color: 0.5%,  0.63662-310
sn
.442129630 .500000000 m
.480252822 .500000000 l
.519739090 .500000000 l
.557870370 .500000000 l
sn
.557870370 .500000000 m
.615740741 .500000000 l
sn
% POLY# 126     end point (  0.60000000E+00,  0.00000000E+00,  0.39676287E-03 )
% curve, solid color, mesh 3 (automatic)
% eps_xyz, eps_color: 0.5%,  0.63662-310
sn
.615740741 .500000000 m
.653812877 .500000000 l
.693354877 .500000000 l
.731481481 .500000000 l
sn
.731481481 .500000000 m
.962962963 .500000000 l
sn
.000000 .000000 .000000 c
.037037037 .500000000 m
.268518519 .500000000 l
sn
% POLY# 127     end point (  0.30000000E+00,  0.00000000E+00,  0.20305508E-01 )
% curve, solid color, mesh 8 (automatic)
% eps_xyz, eps_color: 0.5%,  0.16976-309
sn
.268518519 .500000000 m
.282882358 .500000000 l
.297487786 .500000000 l
.312228829 .500000000 l
.326999515 .500000000 l
.341693873 .500000000 l
.356205931 .500000000 l
.370429717 .500000000 l
.384259259 .500000000 l
sn
.384259259 .500000000 m
.442129630 .500000000 l
sn
% POLY# 128     end point (  0.45000000E+00,  0.00000000E+00,  0.30795559E-01 )
% curve, solid color, mesh 9 (automatic)
% eps_xyz, eps_color: 0.5%,  0.19098-309
sn
.442129630 .500000000 m
.454855747 .500000000 l
.467683296 .500000000 l
.480583160 .500000000 l
.493526221 .500000000 l
.506483362 .500000000 l
.519425465 .500000000 l
.532323412 .500000000 l
.545148087 .500000000 l
.557870370 .500000000 l
sn
.557870370 .500000000 m
.615740741 .500000000 l
sn
% POLY# 129     end point (  0.60000000E+00,  0.00000000E+00,  0.61247773E-02 )
% curve, solid color, mesh 8 (automatic)
% eps_xyz, eps_color: 0.5%,  0.16976-309
sn
.615740741 .500000000 m
.629490235 .500000000 l
.643687524 .500000000 l
.658211296 .500000000 l
.672940238 .500000000 l
.687753040 .500000000 l
.702528389 .500000000 l
.717144973 .500000000 l
.731481481 .500000000 l
sn
.731481481 .500000000 m
.962962963 .500000000 l
sn
.000000 .000000 .000000 c
.037037037 .500000000 m
.268518519 .500000000 l
sn
% POLY# 130     end point (  0.30000000E+00,  0.00000000E+00, -0.20305508E-01 )
% curve, solid color, mesh 8 (automatic)
% eps_xyz, eps_color: 0.5%,  0.16976-309
sn
.268518519 .500000000 m
.282882358 .500000000 l
.297487786 .500000000 l
.312228829 .500000000 l
.326999515 .500000000 l
.341693873 .500000000 l
.356205931 .500000000 l
.370429717 .500000000 l
.384259259 .500000000 l
sn
.384259259 .500000000 m
.442129630 .500000000 l
sn
% POLY# 131     end point (  0.45000000E+00,  0.00000000E+00, -0.30795559E-01 )
% curve, solid color, mesh 9 (automatic)
% eps_xyz, eps_color: 0.5%,  0.19098-309
sn
.442129630 .500000000 m
.454855747 .500000000 l
.467683296 .500000000 l
.480583160 .500000000 l
.493526221 .500000000 l
.506483362 .500000000 l
.519425465 .500000000 l
.532323412 .500000000 l
.545148087 .500000000 l
.557870370 .500000000 l
sn
.557870370 .500000000 m
.615740741 .500000000 l
sn
% POLY# 132     end point (  0.60000000E+00,  0.00000000E+00, -0.61247773E-02 )
% curve, solid color, mesh 8 (automatic)
% eps_xyz, eps_color: 0.5%,  0.16976-309
sn
.615740741 .500000000 m
.629490235 .500000000 l
.643687524 .500000000 l
.658211296 .500000000 l
.672940238 .500000000 l
.687753040 .500000000 l
.702528389 .500000000 l
.717144973 .500000000 l
.731481481 .500000000 l
sn
.731481481 .500000000 m
.962962963 .500000000 l
sn
.000000 .000000 .000000 c
.037037037 .500000000 m
.268518519 .500000000 l
sn
% POLY# 133     end point (  0.30000000E+00,  0.00000000E+00,  0.92671176E-02 )
% curve, solid color, mesh 6 (automatic)
% eps_xyz, eps_color: 0.5%,  0.12732-309
sn
.268518519 .500000000 m
.287427858 .500000000 l
.306893911 .500000000 l
.326613376 .500000000 l
.346282956 .500000000 l
.365599350 .500000000 l
.384259259 .500000000 l
sn
.384259259 .500000000 m
.442129630 .500000000 l
sn
% POLY# 134     end point (  0.45000000E+00,  0.00000000E+00,  0.14544690E-01 )
% curve, solid color, mesh 6 (automatic)
% eps_xyz, eps_color: 0.5%,  0.12732-309
sn
.442129630 .500000000 m
.461084003 .500000000 l
.480440813 .500000000 l
.499998958 .500000000 l
.519557334 .500000000 l
.538914839 .500000000 l
.557870370 .500000000 l
sn
.557870370 .500000000 m
.615740741 .500000000 l
sn
% POLY# 135     end point (  0.60000000E+00,  0.00000000E+00,  0.43712390E-02 )
% curve, solid color, mesh 6 (automatic)
% eps_xyz, eps_color: 0.5%,  0.12732-309
sn
.615740741 .500000000 m
.634397425 .500000000 l
.653713387 .500000000 l
.673384201 .500000000 l
.693105439 .500000000 l
.712572675 .500000000 l
.731481481 .500000000 l
sn
.731481481 .500000000 m
.962962963 .500000000 l
sn
.000000 .000000 .000000 c
.037037037 .500000000 m
.268518519 .500000000 l
sn
% POLY# 136     end point (  0.30000000E+00,  0.00000000E+00,  0.10821108E-01 )
% curve, solid color, mesh 6 (automatic)
% eps_xyz, eps_color: 0.5%,  0.12732-309
sn
.268518519 .500000000 m
.287467316 .500000000 l
.306942651 .500000000 l
.326652018 .500000000 l
.346302912 .500000000 l
.365602827 .500000000 l
.384259259 .500000000 l
sn
.384259259 .500000000 m
.442129630 .500000000 l
sn
% POLY# 137     end point (  0.45000000E+00,  0.00000000E+00,  0.16645565E-01 )
% curve, solid color, mesh 7 (automatic)
% eps_xyz, eps_color: 0.5%,  0.14854-309
sn
.442129630 .500000000 m
.458376339 .500000000 l
.474909759 .500000000 l
.491615399 .500000000 l
.508378770 .500000000 l
.525085382 .500000000 l
.541620745 .500000000 l
.557870370 .500000000 l
sn
.557870370 .500000000 m
.615740741 .500000000 l
sn
% POLY# 138     end point (  0.60000000E+00,  0.00000000E+00,  0.45835053E-02 )
% curve, solid color, mesh 6 (automatic)
% eps_xyz, eps_color: 0.5%,  0.12732-309
sn
.615740741 .500000000 m
.634374342 .500000000 l
.653671184 .500000000 l
.673330792 .500000000 l
.693052694 .500000000 l
.712536415 .500000000 l
.731481481 .500000000 l
sn
.731481481 .500000000 m
.962962963 .500000000 l
sn
.000000 .000000 .000000 c
.037037037 .500000000 m
.268518519 .500000000 l
sn
% POLY# 139     end point (  0.30000000E+00,  0.00000000E+00, -0.10821108E-01 )
% curve, solid color, mesh 6 (automatic)
% eps_xyz, eps_color: 0.5%,  0.12732-309
sn
.268518519 .500000000 m
.287467316 .500000000 l
.306942651 .500000000 l
.326652018 .500000000 l
.346302912 .500000000 l
.365602827 .500000000 l
.384259259 .500000000 l
sn
.384259259 .500000000 m
.442129630 .500000000 l
sn
% POLY# 140     end point (  0.45000000E+00,  0.00000000E+00, -0.16645565E-01 )
% curve, solid color, mesh 7 (automatic)
% eps_xyz, eps_color: 0.5%,  0.14854-309
sn
.442129630 .500000000 m
.458376339 .500000000 l
.474909759 .500000000 l
.491615399 .500000000 l
.508378770 .500000000 l
.525085382 .500000000 l
.541620745 .500000000 l
.557870370 .500000000 l
sn
.557870370 .500000000 m
.615740741 .500000000 l
sn
% POLY# 141     end point (  0.60000000E+00,  0.00000000E+00, -0.45835053E-02 )
% curve, solid color, mesh 6 (automatic)
% eps_xyz, eps_color: 0.5%,  0.12732-309
sn
.615740741 .500000000 m
.634374342 .500000000 l
.653671184 .500000000 l
.673330792 .500000000 l
.693052694 .500000000 l
.712536415 .500000000 l
.731481481 .500000000 l
sn
.731481481 .500000000 m
.962962963 .500000000 l
sn
.000000 .000000 .000000 c
.037037037 .500000000 m
.268518519 .500000000 l
sn
% POLY# 142     end point (  0.30000000E+00,  0.00000000E+00, -0.92671176E-02 )
% curve, solid color, mesh 6 (automatic)
% eps_xyz, eps_color: 0.5%,  0.12732-309
sn
.268518519 .500000000 m
.287427858 .500000000 l
.306893911 .500000000 l
.326613376 .500000000 l
.346282956 .500000000 l
.365599350 .500000000 l
.384259259 .500000000 l
sn
.384259259 .500000000 m
.442129630 .500000000 l
sn
% POLY# 143     end point (  0.45000000E+00,  0.00000000E+00, -0.14544690E-01 )
% curve, solid color, mesh 6 (automatic)
% eps_xyz, eps_color: 0.5%,  0.12732-309
sn
.442129630 .500000000 m
.461084003 .500000000 l
.480440813 .500000000 l
.499998958 .500000000 l
.519557334 .500000000 l
.538914839 .500000000 l
.557870370 .500000000 l
sn
.557870370 .500000000 m
.615740741 .500000000 l
sn
% POLY# 144     end point (  0.60000000E+00,  0.00000000E+00, -0.43712390E-02 )
% curve, solid color, mesh 6 (automatic)
% eps_xyz, eps_color: 0.5%,  0.12732-309
sn
.615740741 .500000000 m
.634397425 .500000000 l
.653713387 .500000000 l
.673384201 .500000000 l
.693105439 .500000000 l
.712572675 .500000000 l
.731481481 .500000000 l
sn
.731481481 .500000000 m
.962962963 .500000000 l
sn
(X-motion) .222222222 .037037037 ms
showpage
% 3D bounds of the COSY GR object:
%  x [  0.00000000E+00 ,  0.80000000E+00 ]
%  y [ -0.60000000E-01 ,  0.60000000E-01 ]
%  z [ -0.60000000E-01 ,  0.60000000E-01 ]
% 2D projection of the 3D bounds:
%  x [  0.00000000E+00 ,  0.80000000E+00 ]
%  y [ -0.60000000E-01 ,  0.60000000E-01 ]
% Projection angles (deg):  .00000  .00000  .00000
% Total number of GR polynomial objects: 144
% Zoom bounds: none
%%EOF
